{
	"common": {
		"format": "Formatas",
		"notnow": "Ne dabar",
		"more": "Daugiau",
		"outline": "Planas",
		"bible": "Biblija",
		"reset": "Atstatyti",
		"error": "Klaida",
		"new": "Naujas",
		"verse": "Eilutė",
		"note": "Pastaba",
		"annotate": "Pažymėti",
		"annotations": "Anotacijos",
		"cancel": "Atšaukti",
		"ok": "OK",
		"yes": "Yes",
		"no": "No",
		"other": "Kitas",
		"done": "Padaryta",
		"top": "Viršuje",
		"edit": "Redaguoti",
		"add": "Pridėti",
		"save": "Saugoti",
		"delete": "Ištrinti",
		"remove": "Pašalinti",
		"search": "Paieška",
		"options": "Galimybės",
		"chapter": "Skyrius",
		"article": "Straipsnis",
		"title": "Pavadinimas",
		"image_viewer": "Vaizdų peržiūra",
		"reference": "Nuoroda",
		"topic": "Tema",
		"heading": "Antraštė",
		"reloading": "Perkrauti",
		"loading": "Kraunasi",
		"settings": "Nustatymai",
		"confirm": "Prašome patvirtinti",
		"forums": "Forumas",
		"history": "Istorija",
		"historyclear": "Išvalyti istoriją",
		"historyconfirm": "Tai ištrins visus istorijos elementus. Ar tikrai norite tai padaryti?",
		"subheadings": "Paantraštė",
		"copied": "Kopijuojama į iškarpinę",
		"page": "Puslapis",
		"pages": "Puslapiai",
		"paragraphs": "Pstr.",
		"footnote": "Išnaša",
		"about": "Apie",
		"news": "Naujienos",
		"general": "Bendra",
		"word_search": "Ieškokite žodžio",
		"tip": "Patarimas",
		"recent": "Neseniai",
		"recently_opened": "Neseniai atidaryta",
		"frontcover": "Viršelis",
		"reorder": "Pertvarkyti",
		"order": "Tvarkyti",
		"favourites": "Parankiniai",
		"favouritesave": "Išsaugoti į parankinius",
		"websites": "Interneto svetainės",
		"contents": "Turinys",
		"clearcache": "Išvalyti talpyklą",
		"size": "Dydis",
		"height": "Aukštis",
		"width": "Plotis",
		"small": "Mažas",
		"default": "Numatytas",
		"medium": "Vidutinis",
		"large": "Didelis",
		"larger": "Didesnis",
		"largest": "Didžiausias",
		"fullscreen": "Per visą ekraną",
		"home": "Pradžia",
		"back": "Atgal",
		"forward": "Pirmyn",
		"toggle2lines": "Perjungti 2 liniją",
		"list": "Sąrašas",
		"grid": "Tinklelis",
		"map": "Žemėlapis",
		"hybrid": "Hybridas",
		"choose": "Prašome pasirinkti",
		"selectall": "Pasirinkti viską",
		"online": "Online",
		"file": "Filas",
		"layout": "Keisti išdėstymą",
		"never": "Niekada",
		"sync": "Sinchronizuoti",
		"syncing": "Sinchronizavimas",
		"current": "Dabartinis",
		"saved": "Išsaugota",
		"active": "Aktyvus",
		"alert": "Perspėti",
		"warning": "Įspėjimas",
		"important": "Svarbu",
		"acknowledge": "Pripažinti",
		"any": "Bet kokia",
		"none": "Niekas",
		"enable": "Įgalinti",
		"enabled": "Enabled",
		"disable": "Disable",
		"disabled": "Disabled",
		"update": "Atnaujinti",
		"modify": "Modifikuoti",
		"created": "Sukurta",
		"overdue": "pradelstas",
		"cannot": "Negalima tęsti",
		"all": "Visi",
		"website": "Interneto puslapis",
		"epub": "EPUB",
		"pdf": "PDF",
		"open_prompt": "Atidaryti %1$s",
		"view_prompt": "Žiūrėti%1$s",
		"download_prompt": "Parsisiųsti %1$s",
		"details": "Išsami informacija",
		"stop": "Stop",
		"start": "Pradėti",
		"custom": "Custom",
		"summary": "Santrauka",
		"please_note": "Atkreipk dėmesį",
		"when": "Kada",
		"bookmarks": "Žymės",
		"bookmark": "Žymė",
		"territory": "Teritorija",
		"territories": "Teritorijos",
		"congregation": "Bendruomenė",
		"show_prompt": "Rodyti %1$s",
		"hide_prompt": "Slėpti %1$s",
		"delete_prompt": "Ištrinti %1$s",
		"remove_prompt": "Pašalinti %1$s",
		"open_in_prompt": "Atidaryti %1$s",
		"open_item_in_prompt": "Atidaryti %1$s į %2$s",
		"edit_in_prompt": "Redaguoti in %1$s",
		"view_in_prompt": "Peržiūrėti %1$s",
		"download_from_prompt": "Atsisiųsti iš %1$s",
		"sync_prompt": "Sinch su %1$s",
		"syncing_prompt": "Sinchronizavimas su %1$s",
		"notes": "Pastabos",
		"read_only": "Tik skaitymui",
		"editable": "Redaguoti",
		"required": "Privaloma",
		"unknown": "Nežinoma",
		"confirmed": "Patvirtinta",
		"calendar": "Kalendorius",
		"end": "Pabaiga",
		"ahead": "Priekyje",
		"behind": "Atsilikęs"
	},
	"time": {
		"tomorrow": "Rytoj",
		"today": "Šiandien",
		"yesterday": "Vakar",
		"earlier_this_week": "Anksčiau šią savaitę",
		"next_week": "Next Week",
		"this_week": "Šią savaitę",
		"last_week": "Praeitą savaitę",
		"next_month": "Next Month",
		"this_month": "Šį mėnesį",
		"last_month": "Praeitą mėnesį",
		"older": "Vyresnis",
		"newer": "Naujesnis",
		"next_year": "Next Year",
		"this_year": "Šiais metais",
		"last_year": "Praeitais metais",
		"on_or_before": "Dabar arba prieš %1$s",
		"over_years_ago": "Over %1$s years ago",
		"over_year_ago": "Over 1 year ago",
		"over_months_ago": "Prieš daugiau nei %1$s mėnesių",
		"over_month_ago": "Daugiau nei prieš 1 mėnesį",
		"over_weeks_ago": "Over %1$s weeks ago",
		"over_week_ago": "Daugiau nei prieš savaitę",
		"over_days_ago": "Over %1$s days ago",
		"within_days": "Within the last %1$s days",
		"within_next_days": "Within the next %1$s days",
		"over_days_away": "Over %1$s days away",
		"over_week_away": "Over 1 week away",
		"over_weeks_away": "Over %1$s weeks away",
		"over_month_away": "Over 1 month away",
		"over_months_away": "Over %1$s months away",
		"over_year_away": "Over 1 year away",
		"over_years_away": "Over %1$s years away",
		"future": "Future",
		"day": "Diena",
		"week": "Savaitė",
		"month": "Menuo",
		"year": "Metai",
		"hours": "valandos",
		"hour": "valanda",
		"minutes": "minutės",
		"date": "Data",
		"date_added": "Date Added",
		"date_created": "Date Created",
		"date_updated": "Date Updated",
		"date_picker": "Datos rinkiklis",
		"time": "Laikas",
		"time_picker": "Laiko rinkiklis",
		"format": {
			"time": {
				"standard": "g:i a",
				"full": "g:i:s a"
			},
			"date": {
				"day": "l",
				"year": "Y",
				"full": "d/m/m",
				"full_short": "d/m/m",
				"day_date_suffix": "l jS",
				"day_date_month": "D d/m",
				"day_month_date": "l, j F",
				"day_month_date_year": "l, j F Y",
				"month_year": "F Y",
				"date_month": "d/m",
				"date_month_year": "j F Y",
				"picker": "D j M"
			},
			"datetime": {
				"long": "d/m/Y g:i:s a",
				"full": "l, j F Y, g:i a",
				"month": "j F, l g:i a",
				"month_short": "F d/m g:i a",
				"day_date_month_time": "D d/m \\a\\t g:i a"
			}
		},
		"abbreviations": {
			"hours_minutes": "HH:MM",
			"minutes_seconds": "MM:SS",
			"mins": "mins",
			"am": "am",
			"pm": "pm",
			"st": "st",
			"nd": "nd",
			"rd": "rd",
			"th": "th"
		},
		"days": {
			"long": {
				"sunday": "Sekmadienis",
				"monday": "Pirmadienis",
				"tuesday": "Antradienis",
				"wednesday": "Trečiadienis",
				"thursday": "Ketvirtadienis",
				"friday": "Penktadienis",
				"saturday": "Šeštadienis"
			},
			"short": {
				"sun": "Sek",
				"mon": "Pir",
				"tue": "Ant",
				"wed": "Tre",
				"thu": "Ket",
				"fri": "Pen",
				"sat": "Šeš"
			}
		},
		"months": {
			"long": {
				"january": "Sausis",
				"february": "Vasaris",
				"march": "Kovas",
				"april": "Balandis",
				"may": "Gegužė",
				"june": "Birželis",
				"july": "Liepa",
				"august": "Rugpjūtis",
				"september": "Rugsėjis",
				"october": "Spalis",
				"november": "Lapkritis",
				"december": "Gruodis"
			},
			"short": {
				"jan": "Sau",
				"feb": "Vas",
				"mar": "Kov",
				"apr": "Bal",
				"may": "Geg",
				"jun": "Bir",
				"jul": "Lie",
				"aug": "Rugp",
				"sep": "Rugs",
				"oct": "Spa",
				"nov": "Lap",
				"dec": "Gru"
			}
		}
	},
	"measurement": {
		"long": {
			"km": "KM",
			"mi": "Mylios",
			"gal": "Galonas",
			"L": "Litras"
		}
	},
	"titles": {
		"mr": "Ponas",
		"mrs": "Ponia",
		"miss": "Mis",
		"ms": "Ponia",
		"dr": "Daktaras"
	},
	"email": {
		"feedback": "Siųsti atsiliepimą",
		"standard": "El. Pašto standartinis formatas",
		"send": "Siųsti laišką",
		"confirm": "Pirmiausia patikrinkite, ar jūsų klausimas, problema ar idėja dar nebuvo įtraukti į pranešimus ar vartotojų forumus.",
		"english": "Visa pagalba teikiama anglų kalba, todėl būkite kantrūs su manimi",
		"import": "Importuoti į %1$s",
		"footer": "El. Paštas sukurtas %1$s"
	},
	"forms": {
		"validation": {
			"alert_title": "Klaidingas",
			"alert_message": "Pataisykite tai...",
			"missing_value": "\"%1$s\" turi turėti vertę",
			"url": "Įveskite galiojantį URL, prasidedantį http: // arba https: //"
		}
	},
	"search": {
		"placeholder": "Search %1$s",
		"searching": "Ieškoma",
		"nothing": "Nerasta atitikmenų"
	},
	"browser": {
		"reload": "Perkrauti puslapį",
		"open": "Open Browser",
		"safari": "Atidarykite „Safari“",
		"clipboard": "Copy Link to Clipboard",
		"email": "Mail Link to this Page"
	},
	"apps": {
		"email": "Elektroninio paštas",
		"sms": "Žinutė",
		"telegram": "Telegram",
		"whatsapp": "WhatsAppas",
		"wechat": "WeChat",
		"viber": "Viberis",
		"line": "LINE",
		"hourglass": "Hourglass",
		"nwpublisher": "NW Publisher",
		"dropbox": "Dropbox",
		"th": "Territory Helper",
		"tasks": {
			"alert": "%1$s Alert",
			"error": "%1$s Error",
			"account": "%1$s Account",
			"connect": "Connect to %1$s",
			"sign_in": "Sign In",
			"sign_into": "Sign into %1$s",
			"permissions": "Refresh Permissions",
			"register": "Register with %1$s",
			"registering": "Registering with %1$s",
			"errors": {
				"duplicate": "A %1$s sync is already in progress. Please wait for it to complete and try again.",
				"registering": "Cannot register with %1$s.\n\nPlease try again later or email %2$s so I can verify the %3$s API is working ok.\n\nSorry for the inconvenience.",
				"expired": "Your login to %1$s has expired. Please sign in again to refresh your permissions.",
				"something": "Oops, something went wrong.\n\nPerhaps you did not have the right access level to perform the task. Perhaps %1$s is offline or experiencing issues at this time.\n\nPlease check what you can and either try again later or report this issue.",
				"disconnected": "You have been disconnected from %1$s. Please open the settings and connect again."
			}
		}
	},
	"alerts": {
		"phone": {
			"title": "Phone Call",
			"confirm": "Are you sure you want to call\n%1$s?"
		},
		"sms": {
			"title": "Message",
			"confirm": "Are you sure you want to send a message to %1$s?",
			"cannot": "This device cannot send SMS messages."
		},
		"ziperror": "The file \"%1$s\" is not valid. Likely something went wrong when downloading the file - maybe try downloading it again.\n\nThe file will now be deleted.",
		"import": {
			"failed": "Sorry, something went wrong while trying to import the data. Nothing was imported."
		},
		"noemail": "Email does not seem to be supported on this device. Did you configure your iOS Mail Settings?",
		"restart": "Please restart %1$s for the settings to take effect.",
		"yousure": "Are you sure you want to do this?",
		"internet": {
			"cannot": "Cannot Connect to the Internet",
			"tryagain": "Please connect and try again",
			"offline": "You are not currently online. Please connect to the Internet and try again."
		},
		"permissions": {
			"calendar": "I cannot access your device calendars. Please check the permissions in Settings > Privacy > Calendars."
		},
		"tables": {
			"pulldown": "Pull down to refresh...",
			"release": "Release to refresh...",
			"loading": "Loading feed data"
		}
	},
	"calls": {
		"title": "Calls",
		"today_none": "No visits scheduled today",
		"date_none": "No visits scheduled for %1$s",
		"today_hint": "Modify a calls Next Visit Date to see it here",
		"actions": {
			"first": "Add your first call",
			"another": "Add a new call",
			"new": "New Call",
			"verifying": "Verifying Calls",
			"delete": "Delete Call",
			"share": "Share Call"
		},
		"types": {
			"first_call": "Pirmas aplankymas",
			"return_visit": "Pakartotinis aplankymas",
			"magazine_route": "Magazine Route",
			"top_priority": "Top Priority",
			"bible_study": "Biblijos studijos",
			"custom": "Custom Type",
			"inactive": "Inactive"
		},
		"types_abbreviated": {
			"first_call": "FC",
			"return_visit": "RV",
			"magazine_route": "MR",
			"top_priority": "TP",
			"bible_study": "BS",
			"custom": "CT",
			"inactive": "I"
		}
	},
	"contacts": {
		"title": "Contacts",
		"contact": "Contact",
		"selected": "%1$s Selected",
		"name": "Name",
		"phone": "Phone",
		"email": "Email",
		"link": "Link",
		"actions": {
			"first": "Add your first contact",
			"another": "Add a new contact",
			"first_hint": "Click the + button top/right...",
			"add": "Add Contact",
			"new": "New Contact",
			"import": "Import from Device Contacts",
			"verifying": "Verifying Contacts",
			"filter": "Filter Contacts",
			"edit": "Edit Contact",
			"delete": "Delete Contact",
			"deleted": "Deleted Contact",
			"message": "Send Message",
			"share": "Share Contact",
			"search": "Search Contacts",
			"search_hint": "Search Name or Address"
		},
		"shared": {
			"subject": "Shared Contact from ServicePlanner",
			"intro": "This contact has been shared with you from <a href=\"https://serviceplanner.me\">ServicePlanner</a>. If you also use ServicePlanner, you can import this contact by opening the email attachment.",
			"email": "Summary Email",
			"file": "Share File",
			"choose": "What method would you like to use to share this contact?",
			"import": {
				"confirm": "Are you sure you want to import this Contact?\n\nIf the Contact already exists, their details will be overwritten. No changes are made to Activity or Reports as a result of this import."
			}
		},
		"headings": {
			"details": "Contact Details",
			"profile": "Profile",
			"this_visit": "This Visit",
			"last_visit": "Last Visit",
			"next_visit": "Next Visit",
			"next_visit_day": "Visit Day",
			"next_visit_on": "Next Visit on %1$s"
		},
		"filters": {
			"save": "Save Current Filter Settings",
			"overwrite": "Overwrite Using Current Filter Settings",
			"header_include": "Include",
			"footer_include": "The contacts to include in the list",
			"header_exclude": "Exclude",
			"footer_exclude": "The contacts to exclude from the list",
			"include_before": "Include Dates Before",
			"types": "Types",
			"all": "All Contacts",
			"default": {
				"bylocality": "Contacts By Locality",
				"bylocality_desc": "Grouped by Locality and sorted by Next Visit Date",
				"bytype": "Contacts By Type",
				"bytype_desc": "Grouped by Type and sorted by Next Visit Date",
				"inactive": "Inactive Contacts",
				"inactive_desc": "Grouped and sorted by Last Visit Date, oldest first",
				"overdue": "Overdue Contacts",
				"overdue_desc": "Grouped and sorted by Last Visit Date, oldest first"
			},
			"sorting": {
				"sort_by": "Sort By",
				"sort_field": "Field",
				"sort_value": "Value",
				"sort_group_by": "Sort Within Group By",
				"primary": "Primary Sort",
				"secondary": "Secondary Sort",
				"order": "Sort Order",
				"ascending": "Ascending",
				"descending": "Descending",
				"asc": "ASC",
				"desc": "DESC",
				"footer": "Order the listed contacts",
				"footer_grouped": "Order the contacts within the group",
				"last_visit": "Last Visit Date",
				"next_visit": "Next Visit Date"
			},
			"saved": {
				"saved": "Saved Filter",
				"default": "Default Filter",
				"other": "Other Filters",
				"name": "Filter Name",
				"description": "Filter Description",
				"delete": "Delete Filter",
				"delete_confirm": "Are you sure you want to delete this filter?",
				"reorder": "Reorder Filters",
				"reorder_save": "Save Order of Filters",
				"reset": "Reset Filters",
				"reset_confirm": "This will delete your custom saved filters and reset to the default system filters.\n\nAre you sure you want to do this?",
				"footer": "Swipe to edit or delete a filter. Use the toolbar menu to change the order. The top filter is always the default filter."
			},
			"grouping": {
				"group_by": "Group By",
				"turn_off": "Turn Off Grouping",
				"disabled": "Grouping is Disabled",
				"footer": "Groups contacts under section headings"
			},
			"alerts": {
				"no_types": "Please select at least one Contact Type",
				"no_matches": "No matching contacts",
				"no_matches_hint": "Please change the Filter settings",
				"apply_today_filter": "This will change the current filter to show \"All Contacts\" with the \"Next Visit Date\" set to %1$s.",
				"apply_on_or_before_filter": "This will change the current filter to show \"All Contacts\" with the \"Next Visit Date\" on or before %1$s."
			}
		},
		"type": "Type",
		"language": "Language",
		"tags": "Tags",
		"tag": "Tag Name",
		"placed": "Placed",
		"placed_qty": "Quantity Placed",
		"no_placements": "You have not placed anything yet",
		"no_videos": "You have not shown any videos yet",
		"shown": "Videos Shown",
		"shown_qty": "Total Viewings",
		"videos": "Videos",
		"visits": {
			"title": "Visits",
			"visit": "Visit",
			"type": "Visit Type",
			"by_type": "Visits By Type",
			"plans": "Plans",
			"details": "Visit Details",
			"next": "Next Scheduled Visit",
			"previous": "Previous Visits",
			"no_placements": "No placements or videos shown",
			"days_since": "Days since last visit",
			"days_until": "Days till next visit",
			"days_overdue": "Days overdue",
			"actions": {
				"first": "Add your first visit",
				"first_hint": "Click the + button top/left...",
				"new": "New Visit",
				"new_on": "New Visit on %1$s",
				"edit": "Edit Visit",
				"view": "Previous Visit",
				"remind": "Send Reminder",
				"delete": "Delete Visit",
				"confirmDelete": "Are you sure you want to delete this visit? This will also delete the visit and any placements from reports.",
				"manual": "Only place a value here to enter historic report data. Otherwise log your Visits against each Contact.",
				"plans": {
					"previous": "Previous Plans",
					"insert_this": "Insert into This Visits Notes",
					"insert_next": "Insert into Next Visits Plans"
				}
			},
			"types": {
				"not_home": "Not Home",
				"secular": "Secular"
			}
		},
		"alerts": {
			"calculated": "This value is automatically calculated from the Visits you make.",
			"inactive": "Change to Inactive",
			"permanent": "Permanently Delete",
			"confirmDelete": "Would you like to change the Contact Type for %1$s to \"Inactive\"? Or do you want to permanently delete them?\n\nNote: Deleting a contact does not remove their visits or placements from Reports (you can do this by deleting each individual visit first).",
			"confirmDeleteSelected": "Are you sure you want to delete the %1$s selected contacts?\n\nOr would you like to change their type to \"Inactive\" instead?",
			"confirmDate": "Set the Next Call Date for %1$s selected contacts to:"
		},
		"pickers": {
			"type": "Contact Type",
			"type_hint": "You can rename these types in Settings > Workflow",
			"tags": "Select Tags",
			"thisvisitdate": "This Visit",
			"nextvisitdate": "Next Visit",
			"dateNextVisit": "Next Visit Date",
			"next_week": "+ 1 week",
			"next_fortnight": "+ 2 weeks",
			"next_month": "+ 4 weeks",
			"location": {
				"title": "Force Location",
				"message": "Force the address to use GPS co-ordinates from...",
				"my_location": "My Current Location",
				"insert_location": "Insert Current Location",
				"previous_address": "Insert Previous Address"
			}
		}
	},
	"partners": {
		"partner": "Partner",
		"start": "Start Time",
		"end": "End Time",
		"calendars": {
			"header": "Device Calendar Options",
			"device": "Device Calendars",
			"readonly": "Read-only calendars are not listed",
			"add": "Add to Calendar",
			"remove": "Remove from Calendar",
			"notes": "Change event details in ServicePlanner."
		}
	},
	"qrcode": {
		"show": "Show QR Code",
		"saved": "QR Code saved to your Photo Library.",
		"error": "Could not save the QR code to your Photo Library."
	},
	"maps": {
		"title": "Maps",
		"type": {
			"choose": "Choose a map type:",
			"normal": "Standard",
			"hybrid": "Hybrid",
			"satellite": "Satellite",
			"terrain": "Terrain"
		},
		"options": {
			"tracking_on": "My Location On",
			"tracking_off": "My Location Off",
			"traffic_on": "Traffic On",
			"traffic_off": "Traffic Off",
			"poi_on": "Points of Interest On",
			"poi_off": "Points of Interest Off"
		},
		"apps": {
			"applemaps": "Apple Maps",
			"googlemaps": "Google Maps",
			"waze": "Waze"
		},
		"ask": "Ask Each Time",
		"address": {
			"select": "Please select the correct address:",
			"invalid": "Not a valid address. Please try again.",
			"askapp": "Open address using ..."
		},
		"manual": {
			"confirm": "Are you sure you want to change the location of \"%1$s\" to these new coordinates?\n\nNote: This will not update the contacts written address, just the location of the marker on the map."
		},
		"locator": {
			"message": "What would you like to do with this address?",
			"what": "What would you like to view?",
			"current": "My Current Location",
			"contact": "Create New Contact",
			"move": "Move Existing Contact"
		},
		"locations": {
			"message": "What would you like to do?",
			"open_in": "Open in %1$s",
			"drive": "Drive to Location",
			"star": "Starred Location",
			"flag": "Territory Flag",
			"car": "Car Location",
			"hall": "Kingdom Hall",
			"home": "Home",
			"set": "Set %1$s",
			"remove": "Remove Location Marker"
		}
	},
	"addresses": {
		"address": "Address",
		"geocode": "Geocode",
		"location": "Location",
		"locations": "Locations",
		"locality": "Locality",
		"unit": "Unit",
		"units": "Units",
		"floor": "Floor",
		"ground": "Ground Floor",
		"number": "Number",
		"street": "Street",
		"city": "City",
		"postcode": "Postcode",
		"locale": "Locale",
		"components": "Address Components",
		"latitude": "Latitude",
		"longitude": "Longitude",
		"suburb": "Suburb",
		"county": "County",
		"state": "State",
		"state_code": "State Code",
		"country": "Country",
		"country_code": "Country Code",
		"place_id": "Place ID",
		"place_id_hint": "Google Place ID",
		"formatted": "Formatted",
		"formatted_hint": "Full Address",
		"actions": {
			"lookup": "Lookup Address",
			"lookup_footer": "This will lookup the entered address and auto-complete the geocode and address components. Or you can manually edit all address details below.",
			"lookup_location": "Lookup Location",
			"lookup_location_footer": "This will lookup your current location and auto-complete the address, geocode and address components. Or you can manually enter an address to lookup.",
			"current_location": "Use Current Location",
			"current_location_footer": "This will auto-detect your current latitude and longitude."
		}
	},
	"territories": {
		"name": "Congregation Name",
		"pick": "Which Territory?",
		"none": "You have not created any Territories yet.",
		"map_number": "Map %1$s",
		"map_number_type": "Map %1$s (%2$s)",
		"add": {
			"new": "Add New Territory",
			"sorry": "At the moment only Territories imported from Territory Helper (territoryhelper.com) are supported. In a future update you will be able to create your own Territory manually. Thanks for your patience.",
			"import": "Import from Territory Helper",
			"manual": "Create Manually"
		},
		"search": {
			"congregation": "Search %1$s Maps",
			"map": "Search Map %1$s (%2$s)"
		},
		"maps": {
			"none": "There are no Maps for this Territory yet.",
			"types": "Map Types",
			"types_footer": "Reorder or click to change colour",
			"type": "Map Type",
			"details": "Map Details",
			"number": "Map Number",
			"label": "Map Label",
			"image": "Map Image",
			"assigned": "Assigned",
			"assigned_to": "Assigned to %1$s",
			"unassigned": "Unassigned"
		},
		"locations": {
			"details": "Location Details",
			"type": "Location Type",
			"status": "Location Status",
			"language": "Location Language",
			"first": "Add your first location",
			"add_to": "Add to Map %1$s",
			"visibility": {
				"title": "Visibility",
				"approved": "Approved for Display",
				"unapproved": "Not Yet Approved"
			}
		},
		"units": {
			"floor_hint": "Floor 0 = Ground Floor",
			"details": "Unit Details",
			"type": "Unit Type",
			"status": "Unit Status",
			"add": "Add a Unit"
		},
		"statistics": {
			"title": "Statistics",
			"unique": "Unique"
		},
		"types": {
			"house": "House",
			"apartment": "Apartment",
			"business": "Business",
			"trainstation": "Train Station",
			"busstation": "Bus Station",
			"school": "School",
			"store": "Store",
			"language": "Language",
			"harbour": "Harbour",
			"airport": "Airport",
			"truckstop": "Truck Stop",
			"elderlyhome": "Elderly Home",
			"park": "Park",
			"camp": "Camp",
			"restaurant": "Restaurant",
			"hotel": "Hotel",
			"vacation": "Vacation"
		},
		"statuses": {
			"unknown": "Status Unknown",
			"returnvisit": "Return Visit",
			"biblestudy": "Bible Study",
			"donotcall": "Do Not Call",
			"eldersonly": "Elders Only",
			"locked": "Locked",
			"lettersonly": "Letters Only",
			"vacant": "Vacant",
			"notrespassing": "No Trespassing",
			"daysleeper": "Day Sleeper",
			"witness": "Witness",
			"phoneonly": "Phone Only",
			"referral": "Referral",
			"bewareofdog": "Beware Of Dog"
		},
		"visits": {
			"add": "Add a Visit",
			"delete": "Delete Visit",
			"status": "Visit Status",
			"visited": {
				"last": "Last Visited",
				"never": "Never Visited",
				"date": "Date Visited"
			},
			"statuses": {
				"unvisited": "Unvisited",
				"visited": "Visited",
				"skipped": "Skipped",
				"nothome1": "Not at Home 1",
				"nothome2": "Not at Home 2",
				"nothome3": "Not at Home 3"
			}
		},
		"languages": {
			"unknown": "Language Unknown"
		},
		"filters": {
			"matches": "No matches for the current filter",
			"change": "Please change the filter settings",
			"maps": {
				"title": "Map Filters",
				"include": {
					"title": "Maps to Include",
					"all": "All Maps",
					"assigned": "Currently Assigned",
					"mine": "Assigned to Me"
				},
				"group": {
					"title": "Group By",
					"type": "Map Type",
					"none": "No Grouping"
				},
				"sort": {
					"title": "Sort By",
					"number": "Map Number",
					"oldest": "Oldest First",
					"assigned": "Recently Assigned",
					"addresses": "Unique Addresses"
				}
			},
			"locations": {
				"title": "Location Filters",
				"types": "Location & Unit Types",
				"statuses": "Location & Unit Statuses",
				"languages": "Location & Unit Languages",
				"apply_list": "Apply to List",
				"apply_map": "Apply to Map"
			}
		},
		"th": {
			"form": {
				"import": "Import Maps",
				"nosync": "Territory Helper account details are not synced between devices. Please sign in on each device.",
				"geocode": "Please press the locate button to the right of the address field to geocode the address with the latitude and longitude coordinates.",
				"address": "Address details can only be changed in Territory Helper.",
				"online": "You must be online to change data in Territory Helper.",
				"details": "These details come from Territory Helper.",
				"privacy": "Notes are stored in Territory Helper. Please ensure the note complies with local data privacy laws.",
				"list": "This list comes from Territory Helper.",
				"remove": "Are you sure you want to remove the Territory \"%1$s\" from ServicePlanner?"
			},
			"setup": {
				"publisher": "Getting Publisher Details",
				"congregaton": "Getting Congregation Details"
			},
			"sync": {
				"title": "Use the Refresh Button",
				"hint": "Use the Refresh button top/right to get the latest Maps data from Territory Helper.",
				"importing": "Importing Territory Maps ...",
				"wait": "Please wait while the maps are imported from Territory Helper.",
				"map": "Refresh Map Data",
				"location": "Refresh Location Data",
				"sending": "Sending changes to Territory Helper"
			},
			"assignments": {
				"status": "Assignment Status",
				"assigned": "Assigned",
				"assigned_to": "Assigned to %1$s",
				"assigned_me": "Assigned to Me",
				"assigned_date": "Assigned %1$s (%2$s days)",
				"assigned_none": "No Maps Assigned To Me",
				"not": "Not currently assigned",
				"request": "Request Map",
				"request_made": "Your map request has been submitted. Please wait for the Territory Servant to process your request.",
				"return": "Return Worked",
				"unworked": "Return Unworked"
			},
			"roles": {
				"0": "Publisher",
				"10": "Advanced",
				"30": "Elder",
				"35": "Overseer",
				"40": "Assistant",
				"50": "Administrator",
				"60": "Translator",
				"100": "System Administrator"
			},
			"permissions": {
				"reset": "Reset Permissions",
				"low": "Sorry, you do not have permission to perform this task in Territory Helper.",
				"changed": "If your permissions were recently upgraded in Territory Helper then please go to the territory settings in ServicePlanner and \"Reset Permissions\"."
			}
		}
	},
	"today": {
		"title": "Šiandien",
		"plugins": {
			"timer": "Laikmatis",
			"media": "Filmukai",
			"bookshelf": "Leidiniai",
			"territories": "Teritorijos",
			"contacts": "Contacts to Visit",
			"hours": "Valandų santrauka",
			"activity": "Veikla"
		},
		"settings": {
			"title": "Today Settings",
			"plugins": "Plugins",
			"heading": "Heading",
			"activity": "Activity Plugin Items",
			"hours": "Hours Summary Items"
		}
	},
	"timer": {
		"stop": "Stop Timer",
		"start": "Start Timer",
		"pause": "Pause Timer",
		"resume": "Resume Timer",
		"confirm": {
			"more": "You need at least 5 minutes to report.",
			"message": "Would you like to add %1$s (%2$s) to your activity for %3$s?",
			"ministry": "Add to Ministry Hours",
			"other": "Add to %1$s Hours",
			"stop": "Just Stop the Timer",
			"done_ministry": "%1$s (%2$s) was added to your Ministry Hours for %3$s.",
			"done_other": "%1$s (%2$s) was added to your %3$s Hours for %4$s."
		}
	},
	"library": {
		"title": "Library"
	},
	"clipboard": {
		"cover": {
			"add": "Add Cover",
			"title": "You can choose a cover from your photo library or insert an image you have copied to your clipboard...",
			"choose": "Choose Photo",
			"clipboard": "Use Clipboard Image",
			"zoom": "Show Cover",
			"remove": "Remove Cover"
		},
		"paste": {
			"no_image_title": "No Image Found",
			"no_image_message": "Your clipboard does not currently have an image in it.\n\nPlease locate an image in your browser, or in an app that allows images to be copied, and tap+hold to \"Copy\" the image to your clipboard."
		}
	},
	"bookshelf": {
		"title": "Bookshelf",
		"publications": "Leidiniai",
		"hints": {
			"first_item": "Press + on the toolbar to add your first %1$s",
			"add_item": "Press + on the toolbar to add a %1$s",
			"no_recent": "Recent items are added over time. Choose \"All\" on the toolbar to select your first item."
		},
		"default": {
			"description": "You can use the \"+\" button in the top toolbar to add publications to this category.\n\nTo get you started, would you like to add some default publications? You can edit or delete them at any time.",
			"confirm": "Would you like to add some default publications to this category? It will try to skip duplicate entries based on the publication abbreviation.",
			"button": "Add Default %1$s"
		},
		"sections": {
			"magazines": "Žurnalai",
			"awake": "Atsibūskite!",
			"watchtower": "Sargybos bokštas",
			"books": "Knygos",
			"brochures": "Brošiūros",
			"tracts": "Lankstinukai",
			"invites": "Kvietimai",
			"other": "Kita"
		},
		"singular": {
			"magazines": "Žurnalas",
			"awake": "Atsibūskite!",
			"watchtower": "Sargybos bokštas",
			"watchtower_public": "Sargybos bokštas (Visuomenei)",
			"watchtower_study": "Sargybos bokštas (Studijoms)",
			"watchtower_simplified": "Sargybos bokštas (Supaprastintas)",
			"books": "Knyga",
			"brochures": "Brošiūra",
			"tracts": "Lankstinukas",
			"invites": "Kvietimas",
			"other": "Publication",
			"card": "Kontaktinė kortelė",
			"letter": "Laiškas",
			"link": "Svetainės nuoroda"
		},
		"form": {
			"new": "New %1$s",
			"today": "Add to Today Screen",
			"remove": "Remove from Today Screen",
			"header": "Publication Details",
			"advanced": "Advanced Details",
			"abbr": "Abbreviation",
			"url": "Website URL (www)",
			"issue": "Issue",
			"issue_number": "No.",
			"title": "Title",
			"locations": "Download Locations",
			"pdf_url": "Download URL",
			"epub_url": "Download URL",
			"short_title": "Short Title (Recommended)",
			"published": "Year Published",
			"count": "Count as Placement",
			"confirmTodayAdded": "This publication has been added to your Today screen.",
			"confirmTodayRemoved": "This publication has been removed from your Today screen.",
			"confirmDelete": "Are you sure you want to delete the %1$s \"%2$s\"?\n\nThis cannot be undone.",
			"cannot_delete": "This publication has been placed and thus cannot be deleted.\n\nYou can use the Filters to locate Contacts who have this publication in their Library, and manually remove the Placements first.",
			"tips": {
				"lookup": "This Lookup button is just a helper. It will try to help populate the publication details for you. However it will often return incomplete or empty results. In that case you will need to manually enter the missing publication details.",
				"no_image": "This button will no longer insert the cover image for publications. You can use the “Add Cover” button to do this yourself. See the Help section of the website for further details.",
				"abbr": {
					"books": "Abbreviation (bh, lv ...)",
					"brochures": "Abbreviation (fg, lc ...)",
					"tracts": "Abbreviation (T-36, T-37 ...)"
				}
			},
			"errors": {
				"abbreviation": "There does not appear to be any details for this publication abbreviation in the selected language. Please try a different abbreviation, or enter the publication details manually.",
				"imported": "This publication was imported and is not linked to any publications in your ServicePlanner Library.\n\nYou can re-add the placements in your visits if you want to refresh this list."
			}
		}
	},
	"media": {
		"title": "Media",
		"videos": "Videos",
		"video": "Video",
		"default": {
			"description": "You can use the \"+\" button in the top toolbar to add videos to this category.\n\nTo get you started, would you like to add some generic video placeholders? These can be used to report videos shown to householders without having to add every specific video available. You can edit or delete them at any time.",
			"confirm": "Would you like to add some generic videos to this category? It will try to skip duplicate entries.",
			"button": "Add Generic Videos",
			"section": "Section %1$s Video"
		},
		"sections": {
			"ministry": "Ministry",
			"study": "Bible Study",
			"children": "Children",
			"whiteboard": "Whiteboard",
			"songs": "Songs",
			"other": "Other"
		},
		"singular": {
			"videos": "Video",
			"ministry": "Ministry Video",
			"study": "Study Video",
			"children": "Children's Video",
			"whiteboard": "Whiteboard Animation",
			"songs": "Song",
			"other": "Video"
		},
		"plural": {
			"videos": "Videos",
			"ministry": "Ministry Videos",
			"study": "Study Videos",
			"children": "Children's Videos",
			"whiteboard": "Whiteboard Animations",
			"songs": "Songs",
			"other": "Videos"
		},
		"sizes": {
			"240": "240p",
			"360": "360p",
			"480": "480p",
			"720": "720p"
		},
		"form": {
			"new": "New %1$s",
			"today": "Add to Today Screen",
			"remove": "Remove from Today Screen",
			"header": "Video Details",
			"downloaded_footer": "Downloaded videos will not be synced via Dropbox",
			"advanced": "Advanced Details",
			"duration": "Duration",
			"locations": "Video Locations",
			"website": "Website Address",
			"website_url": "Website URL",
			"broadcast_url": "Broadcast URL",
			"no_broadcast_url": "Please enter a valid Broadcast URL. Go to tv.jw.org, find the video you want to add, copy the URL from the address bar into this field.",
			"online": "Online Resources",
			"download_url": "Download URL",
			"download": "Download Video",
			"downloaded": "Downloaded %1$s",
			"title": "Title",
			"short_title": "Short Title (Recommended)",
			"play": "Play %1$s",
			"stream": "Stream %1$s",
			"confirm_today_added": "This video has been added to your Today screen.",
			"confirm_today_removed": "This video has been removed from your Today screen.",
			"confirm_delete": "Are you sure you want to delete the %1$s \"%2$s\"?\n\nThis cannot be undone.",
			"cannot_delete": "This video has been shown to contacts and thus cannot be deleted.\n\nYou can use the Filters to locate the Contacts who have seen this video and manually remove this video first.",
			"no_videos": "You have not defined any locations for this video.",
			"tips": {
				"lookup": "This Lookup button is just a helper. It will try to help populate the video details for you. However it may return incomplete or empty results. In that case you will need to manually enter the missing video details.",
				"no_image": "This button will no longer insert the cover image for videos. You can use the “Add Cover” button to do this yourself. See the Help section of the website for further details."
			},
			"errors": {
				"url": "It does not appear to be a valid Broadcast URL for the selected language. Please enter a valid Broadcast URL or select a different language and try again. Otherwise enter the video details manually.",
				"imported": "This video was imported and is not linked to any videos in your ServicePlanner Library.\n\nYou can re-add the videos in your visits if you want to refresh this list."
			}
		}
	},
	"languages": {
		"single": "Language",
		"multiple": "Languages",
		"available": "Available %1$s",
		"selected": "Selected %1$s",
		"other": "Other %1$s",
		"search": "Search %1$s",
		"app": {
			"title": "App Language",
			"hint": "Used for buttons and labels",
			"restart": "Please restart the app to change the language."
		},
		"beta": {
			"title": "Incomplete Translations (Beta)",
			"hint": "Email support@serviceplanner.me to help"
		},
		"chinese": {
			"options": "Chinese Options",
			"characters": "Characters Only",
			"pi": "Pinyin",
			"zhu": "Zhuyin",
			"lau": "Sidney Lau",
			"yale": "Yale",
			"twoline": "%1$s 2-Line",
			"oneline": "%1$s Only"
		}
	},
	"websites": {
		"tasks": {
			"bookmark": "Add Bookmark",
			"video": "Add Video",
			"video_cat": "Which category do you want to add this video to?",
			"briefcase": "Add to Briefcase",
			"safari": "Open in Safari",
			"copy": "Copy URL",
			"email": "Email Reader View"
		},
		"bookmarks": {
			"none": "No Saved Bookmarks",
			"first": "Hint: Navigate to a website. You will then be be able to Bookmark the website using the toolbar buttons.",
			"added": "Bookmark Added"
		},
		"icon": {
			"add": "Add Icon",
			"title": "You can choose an icon from your photo library or insert an image you have copied to your clipboard...",
			"zoom": "Show Icon",
			"remove": "Remove Icon"
		},
		"browser": {
			"search": "Search or website url",
			"reader": "Reader View Available",
			"2line": "Romanisation Available",
			"video": "Video Detected"
		},
		"form": {
			"new": "New %1$s",
			"today": "Add to Today Screen",
			"remove": "Remove from Today Screen",
			"header": "Website Details",
			"footer": "URL Placeholders: %Y (Year), %m (month), %d (day)",
			"advanced": "Advanced Details",
			"share_link": "Share Link",
			"website": "Website Address",
			"website_url": "Website URL",
			"online": "Online Resources",
			"title": "Title",
			"short_title": "Short Title (Recommended)",
			"confirm_today_added": "This website has been added to your Today screen.",
			"confirm_today_removed": "This website has been removed from your Today screen.",
			"confirm_delete": "Are you sure you want to delete the %1$s \"%2$s\"?\n\nThis cannot be undone.",
			"errors": {
				"url": "It does not appear to be a valid URL. Please try again."
			}
		}
	},
	"activity": {
		"title": "Activity",
		"current": "Current",
		"reports": "Reports",
		"month": "Month",
		"year": "Year",
		"other": "Other",
		"manual": "Manual",
		"auto": "Calculated",
		"planned": "Planned",
		"scheduled": "Scheduled",
		"ministry": "Ministry",
		"theocratic": "Theocratic",
		"personal": "Personal",
		"actual": "Actual",
		"report": {
			"title": "Report for %1$s",
			"send": "Send Report",
			"hours": "Hours",
			"credits": "Credits",
			"minutes": "%1$s minutes",
			"hours_ministry": "Ministry Hours",
			"hours_other": "%1$s Hours",
			"hours_under_planned": "%1$s left to plan",
			"hours_over_planned": "%1$s over goal",
			"hours_progress": "%1$s of %2$s hours",
			"hours_under": "%1$s under",
			"hours_over": "%1$s over",
			"hours_behind": "%1$s behind",
			"hours_ahead": "%1$s ahead",
			"hours_ok": "On Track",
			"hours_met": "Goal Met",
			"hours_projected": "%1$s projected",
			"hours_projected_short": "%1$s P",
			"hours_reported": "%1$s reported",
			"hours_reported_short": "%1$s R",
			"hours_total": "%1$s total",
			"hours_total_short": "%1$s T",
			"hours_show": "Show Hours on Calendar",
			"hours_hide": "Hide Hours on Calendar",
			"placements": "Placements",
			"placements_show": "Show Placements, Videos, RVs",
			"placements_hide": "Hide Placements, Videos, RVs",
			"mileage": "Mileage",
			"videos": "Videos",
			"visits": "Return Visits",
			"visits_all": "All Visit Types",
			"studies": "Bible Studies",
			"studies_unique": "Unique Bible Studies",
			"nothing": "Nothing reported yet",
			"remove": "Remove From Report"
		},
		"hours": {
			"target": "Monthly Goal",
			"target_total": "Total Goal",
			"target_alert": "Set the goal for this specific month. This will override the default Monthly Goal set in Settings > Schedule.",
			"carried_title": "Carried Minutes",
			"carried_label": "From Last Month",
			"planned": "Planned Hours",
			"planned_total": "Total Planned",
			"planned_ok": "= Goal",
			"actual": "Actual Hours",
			"progress": "Total to Date",
			"future": "Future Planned",
			"summary": "Activity Summary",
			"total": "Total Hours",
			"calculated": "Calculated",
			"projected": "Projected Hours",
			"reported": "Reported Hours",
			"credits": {
				"add": "Add Hour Credit",
				"delete": "Delete Hour Credit",
				"singular": "Hour Credit",
				"plural": "Hour Credits",
				"reason": "Reason",
				"hint": "eg. Pioneer School",
				"hours": "Credit Hours",
				"confirmDelete": "Are you sure you want to delete this hour credit?"
			},
			"footers": {
				"goals": "You can override your default monthly goal",
				"planned": {
					"over": "%1$s planned over your goal",
					"under": "%1$s to plan to meet your goal",
					"ok": "Planned hours = your monthly goal"
				},
				"actual": {
					"ahead": "So far you are %1$s ahead of plan",
					"behind": "So far you are %1$s behind your plan",
					"ok": "You are on track with your planned hours"
				},
				"projected": {
					"over": "You will be %1$s ahead of this months goal",
					"under": "You will be %1$s under this months goal",
					"ok": "You are on track to meet this months goal"
				},
				"projected_goal": {
					"over": "You are %1$s ahead of the monthly goal",
					"under": "You are %1$s under the monthly goal",
					"ok": "You have met the monthly goal"
				},
				"projected_planned": {
					"over": "You will be %1$s ahead of your planned hours",
					"under": "You will be %1$s under your planned hours",
					"ok": "You will achieve your planned hours"
				}
			}
		},
		"notes": {
			"none": {
				"title": "No notes to show",
				"description": "This list will show all notes from the currently selected calendar month and forward."
			}
		},
		"service_year": {
			"summary": "%1$s Service Year Summary"
		},
		"send": {
			"greeting": "Hi %1$s,",
			"intro": "Here is my report for %1$s:",
			"carried": "%1$s minutes were carried forward to next month (km 9/88 3)",
			"credit_hours": {
				"included_hours": "The reported time includes a %1$s hour credit for %2$s.",
				"comment_only": "Please note a %1$s hour credit for %2$s."
			},
			"other_hours": {
				"included_hours": "The reported time includes %1$s %2$s.",
				"adjusted_hours": "The reported time includes some credit hours contributed from %1$s %2$s.",
				"comment_only": "Please note %1$s %2$s."
			}
		},
		"schedule": {
			"daily_apply": "Apply Daily Schedule",
			"daily_confirm": "This will loop through each day in %1$s and apply your daily goals to the Planned Hours column.",
			"recalc_apply": "Recalc Report Totals",
			"recalc_confirm": "This will loop through each day in %1$s and recalculate the report totals for the month."
		},
		"alerts": {
			"manual_ttl": "Manual Placements",
			"manual_msg": "These manual placements are not linked with a Contact or Visit.",
			"videos_ttl": "Videos Shown",
			"videos_ttl_manual": "Manual Videos Shown",
			"videos_msg": "These video showings are not linked with a Contact or Visit."
		}
	},
	"settings": {
		"title": "Settings",
		"dropbox": {
			"title": "Dropbox Sync",
			"connect": "Connect to Dropbox",
			"connect_footer": "Connect to Dropbox to auto-backup your data or to sync between multiple devices.\nIf you don't have a Dropbox account you will be able to create a free account.",
			"disconnect": "Disconnect from Dropbox",
			"confirm_disconnect": "Are you sure you want to disconnect from Dropbox and stop syncing your data?",
			"last_sync": "Last Sync: %1$s",
			"sync_options": "Sync Options",
			"auto_sync": "Auto Sync",
			"wifi_only": "Limit Auto Sync to Wifi",
			"sync_now": "Sync All Files Now",
			"sync_complete": "Sync Complete",
			"syncing": "Syncing ...",
			"account": {
				"details": "Connected Account",
				"name": "Name",
				"email": "Email"
			}
		},
		"backup": {
			"title": "Manual Backup",
			"button": "Backup Files Now",
			"last": "Last Backup: %1$s",
			"footer": "Email a backup of your app files",
			"confirm": {
				"title": "Generate Backup",
				"progress": "Generating Backup ...",
				"message": "This will generate a ZIP file. You can choose where/how to save the file.\n\nIt could take a few seconds to generate the backup file."
			},
			"reminder": {
				"enable": "Enable Backup Reminders",
				"7day": "Every 7 days",
				"14day": "Every 14 days",
				"30day": "Every 30 days",
				"60day": "Every 60 days",
				"alert": {
					"title": "Backup Reminder",
					"message": "It is time to backup your files. Would you like to generate the backup now?\n\nYou can configure these backup reminders in Settings."
				}
			},
			"restore": {
				"title": "Restore Backup",
				"progress": "Restoring Backup ...",
				"restored": "Data Restored",
				"confirm": "Are you sure you want to restore the data in the ZIP file?\n\nThis will replace all current data in this install of ServicePlanner.",
				"complete": "Your files were successfully restored.\n\nSome restored content may only show after ServicePlanner is restarted.",
				"blocked": "Something was wrong with the ZIP file.\n\nThe restore was blocked and nothing was changed in this install of ServicePlanner.",
				"cancelled": "The restore was cancelled and nothing was changed in this install of ServicePlanner."
			}
		},
		"appearance": {
			"title": "Appearance",
			"color": "Theme Color"
		},
		"workflow": {
			"title": "Workflow",
			"next_visit": "Days until Next Visit",
			"turn_orange": "Days until Orange",
			"turn_red": "Days until Red",
			"turn_blood": "Days until Blood Red",
			"default_visit_type": "Default Visit Type",
			"visit_time": "Use Scheduled Time",
			"hints": {
				"overview": "Workflow controls what happens when you add a new visit to a contact.\n\nEach Contact Type has it's own workflow rules. For example, if you add a new visit to a Contact Type = \"Bible Study\", then you want the Visit Type to be set to \"Return Visit\" by default. And you want the next visit to be automatically scheduled for X days into the future.\n\nNormally the time of the next visit is set to the time of the visit you are currently adding, logically assuming that if you successfully contacted the person at this time today, then try the same time again next visit. However you can tell the workflow to use the \"Scheduled Time\" of the previous visit instead - i.e. re-use the planned visit time, not the time that the visit is being recorded. This is handy for Bible Studies held at the same time each week for example.\n\nThe \"Days until ...\" options let you control the number of days before the date indicators and labels change colour.\n\nFeel free to experiment and customize the rules to match your personal workflow! You can now even click on a Contact Type and rename it.",
				"visit_time": "Defaults to Current Time",
				"next_visit": "This number will be used to auto-define the Next Visit Date.",
				"change_color": "The number of days are counted from the Last Visit Date.",
				"default_visit_type": "When a new Visit is added it will default to this Visit Type.",
				"restart": "Changing this setting may not take effect until you restart the app."
			}
		},
		"partners": {
			"title": "Partners",
			"event": {
				"calendar": "Default Calendar",
				"event": "Calendar Event",
				"event_footer": "Applied to 1st partner only",
				"auto_add": "Auto Add to Calendar",
				"tentative_title": "Event Title - Tentative",
				"tentative_event": "Witnessing with %n?",
				"confirmed_title": "Event Title - Confirmed",
				"confirmed_event": "Witnessing with %n",
				"footer": "%n = Partners Name"
			},
			"name": {
				"title": "Partners Name",
				"full": "Full Name",
				"first": "First Name"
			}
		},
		"schedule": {
			"title": "Tvarkaraštis",
			"form": {
				"annual_goal": "Metinis tikslas",
				"monthly_goal": "Mėnesio tikslas",
				"daily_goals": "Dienos tikslas",
				"daily_footer": "Reset to blank (—) to skip day when applying Schedule to a month from the \"...\" menu on the Activity screen."
			}
		},
		"reporting": {
			"title": "Reporting",
			"overseer": {
				"send_to": "Send Report To",
				"name": "Name",
				"mobile": "Mobile",
				"email": "Email"
			},
			"apps": {
				"method": "Siųsti ataskaitą naudojant",
				"not_installed": "%1$s does not seem to be installed on this device. Please choose another method."
			},
			"calendar": {
				"title": "Kada pradėti kalendoriaus savaitę"
			},
			"hours": {
				"time": {
					"title": "Pranėšti laiką",
					"tick": "Shared in Ministry",
					"hours": "Visos valandos (Default)",
					"minutes": "15 minučių padidėjimas",
					"footer": "Tik pagal specialų susitarimą"
				},
				"other": {
					"title": "Kitos valandos",
					"enable": "Įgalinti kitas valandas",
					"label": "Label As",
					"one_word": "Please keep the label to a single word.",
					"options": {
						"title": "Other Hours Options",
						"include_hours": "Include in Monthly Calendar",
						"include_report": "Include in Reported Hours",
						"include_comment": "Include in Report Comment",
						"include_breakdown": "Show Hours Breakdown",
						"maximum_hours": "Maximum Other Hours",
						"footer": "Other Hours will be reduced if monthly total exceeds maximum."
					}
				},
				"alerts": {
					"format_prompt_title": "Choose Report Format",
					"format_prompt_message": "Would you like to report your hours (if you are a pioneer) or just that you shared in the ministry?\n\nYou can change the default in Settings > Reporting at any time.\n\nOn the Activity screen you can change the report format for a specific month. You can also choose to show or hide your hours on the calendar (see the top / right menu options).",
					"format_tick": "Report Shared in Ministry ✓",
					"format_hours": "Report Full Hours",
					"month_switch_title": "Switch Report Format",
					"month_switch_hours": "Would you like to switch to reporting full hours for this month?\n\nNote: This does not affect hours displaying on the calendar which is controlled from the top / right menu.",
					"month_switch_tick": "Would you like to switch to just indicating that you shared in the ministry this month - i.e. do not share your hours?\n\nNote: This does not affect hours displaying on the calendar which is controlled from the top / right menu."
				}
			},
			"mileage": {
				"title": "Mileage Logs",
				"enable": "Enable Mileage Logs",
				"units_fuel": "Units - Fuel",
				"units_distance": "Units - Distance"
			},
			"options": {
				"title": "Additional Options",
				"notes": "Include Notes in Report",
				"zero": "Include Zero Values",
				"footer": "Optionally hide report lines that = 0. Hours are always included."
			},
			"comment": {
				"title": "Report Comment",
				"footer": "Used as a signature for the Report"
			}
		},
		"ministry": {
			"title": "Tarnyba"
		},
		"social": {
			"website": "Website",
			"facebook": "Facebook",
			"twitter": "Twitter"
		},
		"help": {
			"title": "Help & Support"
		},
		"issues": {
			"title": "Issue Tracker"
		},
		"maps": {
			"title": "Addresses",
			"open_in": "Open Locations in ...",
			"contacts": {
				"title": "Contact Address Lookup",
				"reformat": "Reformat the Address",
				"locality": "Autocomplete the Locality",
				"footer": "Locality = Suburb or Neighbourhood."
			},
			"address": {
				"title": "Address Format",
				"street": "Street Address",
				"no_city": "Street Address, Suburb",
				"no_country": "Street Address, Suburb, City",
				"full": "Street Address, Suburb, City, Country",
				"footer": "Street Address includes the number. City typically includes the Postcode."
			},
			"locality": {
				"title": "Locality Format",
				"suburb": "Suburb or Neighbourhood",
				"postcode_city": "Postcode City",
				"city_postcode": "City Postcode",
				"footer": "Locality is used to group contacts together by area."
			},
			"restrictions": {
				"title": "Reverse Geocoding",
				"country": "Limit Address Results to %1$s"
			}
		},
		"timer": {
			"title": "Timer",
			"enable": "Enable Timer",
			"rounding": {
				"title": "5 Minute Intervals",
				"down": "Always Round Down",
				"nearest": "Round to Nearest",
				"footer": "Decides if 13 minutes is recorded as 10 or 15 minutes."
			},
			"seconds": {
				"title": "Seconds",
				"hide": "Hide Above 00:00:59",
				"always": "Always Show Seconds",
				"footer": "Hiding seconds minimises distraction."
			},
			"badge": {
				"label": "Use App Badge",
				"footer": "Shows \"1\" if the Timer is running"
			},
			"color": {
				"title": "Timer Running Color",
				"slate_gray": "Slate Gray",
				"light_blue": "Light Blue",
				"dark_blue": "Dark Blue",
				"light_green": "Light Green",
				"dark_green": "Dark Green"
			},
			"logs": {
				"title": "Logs",
				"none": "No Timer log entries on this device.",
				"alert": "Deleting a Timer log entry does not change your activity or reported time.",
				"footer": "Only the 30 most recent entries are kept. Timer Settings and Logs are not synced across devices."
			}
		},
		"debug": {
			"title": "Debug Tools",
			"device": "Device Information",
			"memory": "Available Memory",
			"network": "Network Type",
			"email": {
				"title": "Email Debugging Data",
				"footer": "Please do not do this unless I specifically request this data to help debug an issue you are having.",
				"message": "Do not try to use this file for anything - just email it to %1$s.",
				"button": "Generate Email"
			}
		},
		"beta": {
			"title": "Beta Testers",
			"gitlab": {
				"title": "Beta Tracker",
				"button": "Issue Tracker for Beta Testers",
				"footer": "Used for beta specific bug reports and feedback. Create a free GitLab account and send me your username to get access."
			},
			"report": {
				"title": "Submit New Issue",
				"email": "Your GitLab Email Address (Optional)",
				"button": "Send Feedback",
				"footer": "Get your personalised email address from the bottom of the list of Issues on the GitLab Issue Tracker."
			}
		},
		"appstore": {
			"title": "App Store"
		},
		"tags": {
			"edit": "Change Tag Name",
			"delete": {
				"title": "Delete Tag",
				"warning": "The tag \"%1$s\" will be removed from all Contacts.\n\nAre you sure you want to do this?"
			}
		},
		"notifications": {
			"title": "Notifications",
			"sync": "Notification settings are not synced across devices",
			"report": {
				"title": "Report Reminder",
				"last": "On Last Day of the Month",
				"first": "On First Day of Following Month",
				"notification": {
					"message": "Time to send in your field service report?"
				}
			},
			"visits": {
				"title": "Visits Reminder",
				"tomorrow": "The Night Before",
				"today": "The Morning Of",
				"notification": {
					"message": "You have %1$s %2$s planned for %3$s."
				}
			},
			"partner": {
				"title": "Skelbimo partneris",
				"tomorrow": "Naktį prieš",
				"today": "The Morning Of",
				"notification": {
					"message": "Jūs dirbate su %1$s %2$s.",
					"join_middle": ",",
					"join_last": "ir"
				}
			}
		},
		"gdpr": {
			"title": "GDPR sutikimas",
			"footer": "Išjungti kontaktų ekranus ir duomenis",
			"alert": "Šis režimas užtikrina DB ir ES vartotojų sutikimą GDPR.\n\n1) Tai išjungs „Aplankymų“ skirtuką ir skyrių „Kontaktai“ ekrano Šiandien.\n\n2) Visi esami aplankymai bus visam laikui ištrinti.",
			"notice": "In some parts of the world users need to comply with the General Data Protection Regulation (GDPR). This means that NO contact data can be collected.\n\nIf you are affected by the GDPR in your country then please go into Settings and enable the \"GDPR Compliance\" mode.\n\nAny questions about this please ask your local elders or check the website.",
			"important": "Svarbus pastebėjimas",
			"understand": "Aš suprantu"
		}
	}
}
