{
	"common": {
		"format": "形式",
		"notnow": "後ほど",
		"more": "さらに",
		"outline": "アウトライン",
		"bible": "聖書",
		"reset": "リセット",
		"error": "エラー",
		"new": "新しい",
		"verse": "聖句",
		"note": "メモ",
		"annotate": "注釈",
		"annotations": "注釈",
		"cancel": "キャンセル",
		"ok": "OK",
		"yes": "Yes",
		"no": "No",
		"other": "その他",
		"done": "終了",
		"top": "トップ",
		"edit": "編集",
		"add": "追加",
		"save": "保存",
		"delete": "削除",
		"remove": "削除",
		"search": "検索",
		"options": "オプション",
		"chapter": "章",
		"article": "記事",
		"title": "題",
		"image_viewer": "画像ビュー",
		"reference": "参照",
		"topic": "トピック",
		"heading": "見出し",
		"reloading": "再読み込み",
		"loading": "読み込み中",
		"settings": "設定",
		"confirm": "確認",
		"forums": "サポートフォーラム",
		"history": "履歴",
		"historyclear": "履歴を削除",
		"historyconfirm": "履歴をすべて削除してもよろしいですか？",
		"subheadings": "副見出し",
		"copied": "コピー完了",
		"page": "ページ",
		"pages": "ページ",
		"paragraphs": "節",
		"footnote": "脚注",
		"about": "はじめに",
		"news": "ニュース",
		"general": "一般設定",
		"word_search": "単語を検索する",
		"tip": "ヒント",
		"recent": "履歴",
		"recently_opened": "最近開いたアイテム",
		"frontcover": "表紙",
		"reorder": "再整列",
		"order": "並べ替え",
		"favourites": "お気に入り",
		"favouritesave": "お気に入りへ追加",
		"websites": "ウェブサイト",
		"contents": "コンテンツ",
		"clearcache": "キャッシュをクリア",
		"size": "サイズ",
		"height": "大きさ",
		"width": "幅",
		"small": "小",
		"default": "標準",
		"medium": "中",
		"large": "大きく",
		"larger": "大きく",
		"largest": "最大",
		"fullscreen": "フルスクリーン",
		"home": "ホーム",
		"back": "戻る",
		"forward": "進む",
		"toggle2lines": "2行にする",
		"list": "リスト",
		"grid": "グリッド",
		"map": "地図",
		"hybrid": "ハイブリッド",
		"choose": "選択してください",
		"selectall": "すべて選択",
		"online": "オンライン",
		"file": "ファイル",
		"layout": "レイアウトを変更",
		"never": "Never",
		"sync": "同期",
		"syncing": "同期中",
		"current": "現在",
		"saved": "保存済",
		"active": "アクティブ",
		"alert": "アラート",
		"warning": "警告",
		"important": "重要",
		"acknowledge": "Acknowledge",
		"any": "すべて",
		"none": "なし",
		"enable": "有効にする",
		"enabled": "有効にする",
		"disable": "無効にする",
		"disabled": "無効にする",
		"update": "アップデート",
		"modify": "変更",
		"created": "作成",
		"overdue": "期限切れ",
		"cannot": "継続できません",
		"all": "すべて",
		"website": "ウエブサイト",
		"epub": "EPUB",
		"pdf": "PDF",
		"open_prompt": "%1$sを開く",
		"view_prompt": "%1$sを見る",
		"download_prompt": "%1$sをダウンロード",
		"details": "詳細",
		"stop": "ストップ",
		"start": "スタート",
		"custom": "カスタム",
		"summary": "サマリー",
		"please_note": "注意",
		"when": "時間帯",
		"bookmarks": "ブックマーク",
		"bookmark": "ブックマーク",
		"territory": "区域",
		"territories": "区域",
		"congregation": "会衆",
		"show_prompt": "%1$s表示する",
		"hide_prompt": "%1$s隠す",
		"delete_prompt": "%1$sを消去",
		"remove_prompt": "Remove %1$s",
		"open_in_prompt": "%1$sで開く",
		"open_item_in_prompt": "%2$sを%1$sで開く",
		"edit_in_prompt": "%1$sを編集する",
		"view_in_prompt": "%1$sを見る",
		"download_from_prompt": "%1$sからダウンロード",
		"sync_prompt": "%1$sと同期する",
		"syncing_prompt": "%1$sと同期中",
		"notes": "メモ",
		"read_only": "Read Only",
		"editable": "Editable",
		"required": "Required",
		"unknown": "Unknown",
		"confirmed": "Confirmed",
		"calendar": "カレンダー",
		"end": "End",
		"ahead": "進んでいる",
		"behind": "遅れている"
	},
	"time": {
		"tomorrow": "明日",
		"today": "今日",
		"yesterday": "昨日",
		"earlier_this_week": "週の前半",
		"next_week": "Next Week",
		"this_week": "今週",
		"last_week": "先週",
		"next_month": "Next Month",
		"this_month": "今月",
		"last_month": "先月",
		"older": "旧",
		"newer": "新",
		"next_year": "Next Year",
		"this_year": "今年",
		"last_year": "昨年",
		"on_or_before": "On or before %1$s",
		"over_years_ago": "Over %1$s years ago",
		"over_year_ago": "Over 1 year ago",
		"over_months_ago": "%1$sヶ月以上前",
		"over_month_ago": "１ヶ月以上前",
		"over_weeks_ago": "%1$s週間以上前",
		"over_week_ago": "１週間以上前",
		"over_days_ago": "%1$s日以上前",
		"within_days": "%1$s日以内",
		"within_next_days": "Within the next %1$s days",
		"over_days_away": "Over %1$s days away",
		"over_week_away": "Over 1 week away",
		"over_weeks_away": "Over %1$s weeks away",
		"over_month_away": "Over 1 month away",
		"over_months_away": "Over %1$s months away",
		"over_year_away": "Over 1 year away",
		"over_years_away": "Over %1$s years away",
		"future": "Future",
		"day": "日",
		"week": "週",
		"month": "月",
		"year": "年",
		"hours": "時間",
		"hour": "時間",
		"minutes": "分",
		"date": "日付",
		"date_added": "Date Added",
		"date_created": "Date Created",
		"date_updated": "Date Updated",
		"date_picker": "日付ピッカー",
		"time": "時間",
		"time_picker": "時間ピッカー",
		"format": {
			"time": {
				"standard": "g:i a",
				"full": "g:i:s a"
			},
			"date": {
				"day": "l",
				"year": "Y年",
				"full": "Y/n/j",
				"full_short": "y/n/j",
				"day_date_suffix": "jS l",
				"day_date_month": "n/d D",
				"day_month_date": "F j日 l",
				"day_month_date_year": "Y年 F j日 l",
				"month_year": "Y年 F",
				"date_month": "n/d",
				"date_month_year": "Y年 F j日",
				"picker": "M j D"
			},
			"datetime": {
				"long": "Y/n/j G:i:s A",
				"full": "Y年 F j日,l G:i A",
				"month": "F j日, l G:i A",
				"month_short": "F n/d G:i A",
				"day_date_month_time": "n/j D\\a\\t g:i A"
			}
		},
		"abbreviations": {
			"hours_minutes": "HH:MM",
			"minutes_seconds": "MM:SS",
			"mins": "分",
			"am": "am",
			"pm": "pm",
			"st": "st",
			"nd": "nd",
			"rd": "rd",
			"th": "th"
		},
		"days": {
			"long": {
				"sunday": "日曜日",
				"monday": "月曜日",
				"tuesday": "火曜日",
				"wednesday": "水曜日",
				"thursday": "木曜日",
				"friday": "金曜日",
				"saturday": "土曜日"
			},
			"short": {
				"sun": "日",
				"mon": "月",
				"tue": "火",
				"wed": "水",
				"thu": "木",
				"fri": "金",
				"sat": "土"
			}
		},
		"months": {
			"long": {
				"january": "1月",
				"february": "2月",
				"march": "3月",
				"april": "4月",
				"may": "5月",
				"june": "6月",
				"july": "7月",
				"august": "8月",
				"september": "9月",
				"october": "10月",
				"november": "11月",
				"december": "12月"
			},
			"short": {
				"jan": "1月",
				"feb": "2月",
				"mar": "3月",
				"apr": "4月",
				"may": "5月",
				"jun": "6月",
				"jul": "7月",
				"aug": "8月",
				"sep": "9月",
				"oct": "10月",
				"nov": "11月",
				"dec": "12月"
			}
		}
	},
	"measurement": {
		"long": {
			"km": "キロ",
			"mi": "マイル",
			"gal": "ガロン",
			"L": "リットル"
		}
	},
	"titles": {
		"mr": "Mr",
		"mrs": "Mrs",
		"miss": "Miss",
		"ms": "Ms",
		"dr": "Doctor"
	},
	"email": {
		"feedback": "フィードバックを送信",
		"standard": "標準フォーマットでメール送信",
		"send": "メール送信",
		"confirm": "質問を送信する前に、アナウンスメントやユーザーフォーラムに既に同じ話題が無いかご確認下さい。",
		"english": "サポートはすべて英語になります。ご了承下さい。",
		"import": "%1$sにインポート",
		"footer": "Email generated by %1$s"
	},
	"forms": {
		"validation": {
			"alert_title": "エラー",
			"alert_message": "以下の項目を修正してください",
			"missing_value": "\"%1$s\" の欄に入力がありません",
			"url": "http:// or https://で始まるように正確にURLを入力してください"
		}
	},
	"search": {
		"placeholder": "%1$sを検索",
		"searching": "検索中",
		"nothing": "検索結果はありません"
	},
	"browser": {
		"reload": "再読み込みする",
		"open": "Open Browser",
		"safari": "ブラウザーで開く",
		"clipboard": "リンク先をコピー",
		"email": "このページのリンクをメール"
	},
	"apps": {
		"email": "Eメール",
		"sms": "SMS",
		"telegram": "Telegram",
		"whatsapp": "WhatsApp",
		"wechat": "WeChat",
		"viber": "Viber",
		"line": "LINE",
		"hourglass": "Hourglass",
		"nwpublisher": "NW Publisher",
		"dropbox": "Dropbox",
		"th": "Territory Helper",
		"tasks": {
			"alert": "%1$s アラート",
			"error": "%1$s エラー",
			"account": "%1$s Account",
			"connect": "Connect to %1$s",
			"sign_in": "Sign In",
			"sign_into": "Sign into %1$s",
			"permissions": "Refresh Permissions",
			"register": "Register with %1$s",
			"registering": "Registering with %1$s",
			"errors": {
				"duplicate": "%1$sの同期中です。同期終了まで待ってから再度お試しください。",
				"registering": "Cannot register with %1$s.\n\nPlease try again later or email %2$s so I can verify the %3$s API is working ok.\n\nSorry for the inconvenience.",
				"expired": "Your login to %1$s has expired. Please sign in again to refresh your permissions.",
				"something": "Oops, something went wrong.\n\nPerhaps you did not have the right access level to perform the task. Perhaps %1$s is offline or experiencing issues at this time.\n\nPlease check what you can and either try again later or report this issue.",
				"disconnected": "%1$sからログアウトしました。再ログインしてください。"
			}
		}
	},
	"alerts": {
		"phone": {
			"title": "電話をかける",
			"confirm": "\n%1$sへ電話をかけますか"
		},
		"sms": {
			"title": "メッセージ",
			"confirm": "%1$sへメッセージを送信しますか",
			"cannot": "ご使用のデバイスではSMSを送信できません"
		},
		"ziperror": "\"%1$s\" のファイルは無効です。ダウンロードが正常に終了していない可能性があります。再ダウンロードをお試しください\n\nこのファイルは削除されます",
		"import": {
			"failed": "Sorry, something went wrong while trying to import the data. Nothing was imported."
		},
		"noemail": "ご使用のデバイスではEメールがサポートされていないようです。iOSの設定画面からメールの設定を確認してください",
		"restart": "設定を有効とするためにはアプリを再起動してください.",
		"yousure": "本当に実行してもよろしいですか？",
		"internet": {
			"cannot": "インターネットに接続できません",
			"tryagain": "接続してから、再度お試しください",
			"offline": "現在、オフラインです。インターネットに接続して再度お試しください"
		},
		"permissions": {
			"calendar": "I cannot access your device calendars. Please check the permissions in Settings > Privacy > Calendars."
		},
		"tables": {
			"pulldown": "プルダウンで更新...",
			"release": "離してリフレッシュ...",
			"loading": "データを読み込み中"
		}
	},
	"calls": {
		"title": "訪問先",
		"today_none": "今日、訪問する予定の家はありません",
		"date_none": "%1$sに訪問する予定の家はありません",
		"today_hint": "各訪問先内に次回の訪問予定日を入力するとここに表示されます",
		"actions": {
			"first": "最初の訪問先を登録",
			"another": "訪問先を登録",
			"new": "最初の訪問",
			"verifying": "訪問先を検証",
			"delete": "訪問先を削除",
			"share": "訪問先を共有"
		},
		"types": {
			"first_call": "最初の訪問",
			"return_visit": "再訪問",
			"magazine_route": "雑誌経路",
			"top_priority": "優先的に訪問",
			"bible_study": "聖書研究",
			"custom": "Custom Type",
			"inactive": "断られた"
		},
		"types_abbreviated": {
			"first_call": "初",
			"return_visit": "再",
			"magazine_route": "雑",
			"top_priority": "優先",
			"bible_study": "研",
			"custom": "CT",
			"inactive": "断"
		}
	},
	"contacts": {
		"title": "訪問先",
		"contact": "訪問先",
		"selected": "%1$sを選択中",
		"name": "名前",
		"phone": "電話番号",
		"email": "Eメール",
		"link": "Link",
		"actions": {
			"first": "最初の訪問先を登録",
			"another": "訪問先を登録",
			"first_hint": "+ボタンで追加",
			"add": "訪問先を追加",
			"new": "新しい訪問先",
			"import": "端末の連絡帳から読み込む",
			"verifying": "訪問先を検証",
			"filter": "訪問先をフィルタリング",
			"edit": "訪問先を編集",
			"delete": "訪問先を削除",
			"deleted": "削除した訪問先",
			"message": "メッセージを送信",
			"share": "訪問先を共有",
			"search": "訪問先を検索",
			"search_hint": "名前/住所で検索"
		},
		"shared": {
			"subject": "ServicePlannerアプリでシェアされた訪問先",
			"intro": "この訪問先は<a href=\"https://serviceplanner.me\">ServicePlanner</a>のアプリから共有されています。アプリをお使いの場合、添付のファイルを開くことで訪問先の情報をアプリに追加できます。",
			"email": "Summary Email",
			"file": "Share File",
			"choose": "What method would you like to use to share this contact?",
			"import": {
				"confirm": "Are you sure you want to import this Contact?\n\nIf the Contact already exists, their details will be overwritten. No changes are made to Activity or Reports as a result of this import."
			}
		},
		"headings": {
			"details": "訪問先の詳細",
			"profile": "プロフィール",
			"this_visit": "今回の訪問",
			"last_visit": "先回の訪問",
			"next_visit": "次回の訪問",
			"next_visit_day": "次回訪問日",
			"next_visit_on": "次回の訪問は%1$s"
		},
		"filters": {
			"save": "検索条件を保存",
			"overwrite": "Overwrite Using Current Filter Settings",
			"header_include": "含む",
			"footer_include": "上記の条件に合った訪問先だけ表示されます",
			"header_exclude": "含まない",
			"footer_exclude": "上記の条件に合った訪問先は除外されます",
			"include_before": "Include Dates Before",
			"types": "種類",
			"all": "すべての訪問先",
			"default": {
				"bylocality": "訪問先を周辺",
				"bylocality_desc": "地域別でグループ化済み、次回の訪問日付順で並び替え済み",
				"bytype": "訪問先を種類別",
				"bytype_desc": "種類別でグループ化済み、次回の訪問日付順で並び替え済み",
				"inactive": "断られた訪問先",
				"inactive_desc": "古い日付順でグループ化と並べ替え済み",
				"overdue": "期限切れの訪問先",
				"overdue_desc": "古い日付順でグループ化と並べ替え済み"
			},
			"sorting": {
				"sort_by": "並び替え",
				"sort_field": "フィールド",
				"sort_value": "値",
				"sort_group_by": "グループの中で並び替え",
				"primary": "主な順番",
				"secondary": "次の順番",
				"order": "並び替え順",
				"ascending": "昇順",
				"descending": "降順",
				"asc": "昇順",
				"desc": "降順",
				"footer": "訪問先のリスト順に並べる",
				"footer_grouped": "グループ内で訪問先を並べ替える",
				"last_visit": "先回の訪問日時",
				"next_visit": "次回の訪問日時"
			},
			"saved": {
				"saved": "フィルターを保存",
				"default": "初期のフィルター",
				"other": "その他のフィルター",
				"name": "フィルターの名前",
				"description": "フィルターの説明",
				"delete": "フィルターを消去",
				"delete_confirm": "このフィルターを消去してもよろしいですか",
				"reorder": "フィルターを並べ替え",
				"reorder_save": "フィルターの並び順を保存",
				"reset": "フィルターをリセット",
				"reset_confirm": "この操作でフィルターはリセットされ初期状態に戻ります。\n\n初期状態に戻しますか",
				"footer": "スワイプして、フィルターを編集/削除。ツールバーを使って並び順を変更。最初のフィルターは常にデフォルトのフィルターになります。"
			},
			"grouping": {
				"group_by": "グループ化",
				"turn_off": "グループ化を終了",
				"disabled": "グループ化は無効です",
				"footer": "Groups contacts under section headings"
			},
			"alerts": {
				"no_types": "少なくとも一つの訪問先を選んでください",
				"no_matches": "該当する訪問先はありませんでした",
				"no_matches_hint": "フィルターの設定を変更してください",
				"apply_today_filter": "This will change the current filter to show \"All Contacts\" with the \"Next Visit Date\" set to %1$s.",
				"apply_on_or_before_filter": "This will change the current filter to show \"All Contacts\" with the \"Next Visit Date\" on or before %1$s."
			}
		},
		"type": "種類",
		"language": "言語",
		"tags": "タグ",
		"tag": "タグ名",
		"placed": "配布",
		"placed_qty": "配布した数",
		"no_placements": "まだ配布はありません",
		"no_videos": "まだビデオを見せていません",
		"shown": "ビデオを見せた",
		"shown_qty": "ビデオを見せた合計数",
		"videos": "ビデオ",
		"visits": {
			"title": "訪問",
			"visit": "訪問",
			"type": "Visit Type",
			"by_type": "訪問先の種類",
			"plans": "計画",
			"details": "訪問先の詳細",
			"next": "次の訪問予定",
			"previous": "前回の訪問",
			"no_placements": "配布とビデオはまだありません",
			"days_since": "先回の訪問からの日数",
			"days_until": "次の訪問までの日数",
			"days_overdue": "期限切れの日数",
			"actions": {
				"first": "最初の訪問を登録",
				"first_hint": "+ボタンで追加",
				"new": "新しい訪問先",
				"new_on": "%1$sの新しい訪問先",
				"edit": "訪問先を編集",
				"view": "前回の訪問先",
				"remind": "リマインダーをセット",
				"delete": "訪問先を消去",
				"confirmDelete": "訪問先を消去しますか? 訪問回数と配布数が奉仕報告からも消去されます。",
				"manual": "ここには以前の報告分だけを入力してください。それ以外は各訪問先の項目で記録を入力してください。",
				"plans": {
					"previous": "前回の計画",
					"insert_this": "今回の訪問メモに追加",
					"insert_next": "次回の訪問メモに追加"
				}
			},
			"types": {
				"not_home": "不在",
				"secular": "Secular"
			}
		},
		"alerts": {
			"calculated": "この値は訪問した回数によって自動的に計算されます。",
			"inactive": "「断られた」へ変更",
			"permanent": "完全に削除",
			"confirmDelete": "訪問先の種類を「断られた」へ変更しますか。もしくは完全に削除しますか？\n\n　注: 訪問先を削除しても配布数や訪問数には影響しません",
			"confirmDeleteSelected": "%1$sの訪問先を削除してもよろしいですか？\n\n　もしくは訪問先の種類を「断られた」に変更しますか？",
			"confirmDate": "%1$sの訪問先の次回の訪問予定日を設定"
		},
		"pickers": {
			"type": "訪問先の種類",
			"type_hint": "You can rename these types in Settings > Workflow",
			"tags": "タグを選ぶ",
			"thisvisitdate": "今回の訪問",
			"nextvisitdate": "次回の訪問",
			"dateNextVisit": "次回の訪問予定日",
			"next_week": "+ 1週間後",
			"next_fortnight": "+ 2週間後",
			"next_month": "+ 1ケ月後",
			"location": {
				"title": "現在位置を取得",
				"message": "GPSを使用して住所を取得",
				"my_location": "現在位置",
				"insert_location": "現在位置を追加",
				"previous_address": "以前の住所を追加"
			}
		}
	},
	"partners": {
		"partner": "パートナー",
		"start": "開始時間",
		"end": "終了時間",
		"calendars": {
			"header": "カレンダーオプション",
			"device": "端末のカレンダー",
			"readonly": "読み取り専用のカレンダーは表示できません",
			"add": "カレンダーに追加",
			"remove": "カレンダーから削除",
			"notes": "カレンダーの内容をServicePlannerから変更します"
		}
	},
	"qrcode": {
		"show": "Show QR Code",
		"saved": "QR Code saved to your Photo Library.",
		"error": "Could not save the QR code to your Photo Library."
	},
	"maps": {
		"title": "地図",
		"type": {
			"choose": "地図の種類を変更",
			"normal": "標準",
			"hybrid": "ハイブリッド",
			"satellite": "衛星",
			"terrain": "地形"
		},
		"options": {
			"tracking_on": "現在地を表示",
			"tracking_off": "現在地を非表示",
			"traffic_on": "交通情報を表示",
			"traffic_off": "交通情報を非表示",
			"poi_on": "Points of Interest On",
			"poi_off": "Points of Interest Off"
		},
		"apps": {
			"applemaps": "Appleマップ",
			"googlemaps": "Googleマップ",
			"waze": "Waze"
		},
		"ask": "毎回、確認する",
		"address": {
			"select": "正しい住所を選択してください:",
			"invalid": "住所が検出できません。もう一度お試しください",
			"askapp": "住所を開く..."
		},
		"manual": {
			"confirm": "\"%1$s\"の位置情報を更新しますか？\n\n注:この操作では訪問先に入力されている住所の変更はされません。地図上のマーカーの位置だけが変更されます"
		},
		"locator": {
			"message": "この住所に対してできること",
			"what": "何を参照しますか",
			"current": "現在位置",
			"contact": "新しい訪問先を追加",
			"move": "既存の訪問先をここへ移動"
		},
		"locations": {
			"message": "何をしたいですか？",
			"open_in": "%1$sで開く",
			"drive": "位置情報まで運転",
			"star": "位置情報の記録",
			"flag": "区域のフラグ",
			"car": "車の位置",
			"hall": "王国会館",
			"home": "家",
			"set": "%1$sをセット",
			"remove": "位置情報を消去"
		}
	},
	"addresses": {
		"address": "住所",
		"geocode": "ジオコード",
		"location": "ロケーション",
		"locations": "ロケーション",
		"locality": "地域",
		"unit": "部屋番号",
		"units": "部屋番号",
		"floor": "階数",
		"ground": "一階",
		"number": "番地",
		"street": "通り",
		"city": "市",
		"postcode": "郵便番号",
		"locale": "地域",
		"components": "住所情報",
		"latitude": "緯度",
		"longitude": "経度",
		"suburb": "地区",
		"county": "郡",
		"state": "都道府県",
		"state_code": "State Code",
		"country": "国",
		"country_code": "国コード",
		"place_id": "Place ID",
		"place_id_hint": "Google Place ID",
		"formatted": "Formatted",
		"formatted_hint": "Full Address",
		"actions": {
			"lookup": "住所を自動的に取得する",
			"lookup_footer": "This will lookup the entered address and auto-complete the geocode and address components. Or you can manually edit all address details below.",
			"lookup_location": "住所を自動的に取得する",
			"lookup_location_footer": "This will lookup your current location and auto-complete the address, geocode and address components. Or you can manually edit all details below.",
			"current_location": "現在地を使用する",
			"current_location_footer": "現在地の緯度経度を自動的に取得します"
		}
	},
	"territories": {
		"name": "Congregation Name",
		"pick": "Which Territory?",
		"none": "You have not created any Territories yet.",
		"map_number": "Map %1$s",
		"map_number_type": "Map %1$s (%2$s)",
		"add": {
			"new": "新しいエリアを追加",
			"sorry": "現時点では、Territory Helper（territoryhelper.com）からインポートされた区域のみがサポートされています。 将来のアップデートで、オリジナルの区域を手動で作成することができます。今しばらくお待ちください。",
			"import": "territoryhelper.comからのインポート",
			"manual": "Create Manually"
		},
		"search": {
			"congregation": "Search %1$s Maps",
			"map": "Search Map %1$s (%2$s)"
		},
		"maps": {
			"none": "There are no Maps for this Territory yet.",
			"types": "Map Types",
			"types_footer": "Reorder or click to change colour",
			"type": "Map Type",
			"details": "Map Details",
			"number": "Map Number",
			"label": "Map Label",
			"image": "Map Image",
			"assigned": "Assigned",
			"assigned_to": "Assigned to %1$s",
			"unassigned": "Unassigned"
		},
		"locations": {
			"details": "Location Details",
			"type": "Location Type",
			"status": "Location Status",
			"language": "Location Language",
			"first": "Add your first location",
			"add_to": "Add to Map %1$s",
			"visibility": {
				"title": "Visibility",
				"approved": "Approved for Display",
				"unapproved": "Not Yet Approved"
			}
		},
		"units": {
			"floor_hint": "Floor 0 = Ground Floor",
			"details": "Unit Details",
			"type": "Unit Type",
			"status": "Unit Status",
			"add": "Add a Unit"
		},
		"statistics": {
			"title": "Statistics",
			"unique": "Unique"
		},
		"types": {
			"house": "House",
			"apartment": "Apartment",
			"business": "Business",
			"trainstation": "Train Station",
			"busstation": "Bus Station",
			"school": "School",
			"store": "Store",
			"language": "Language",
			"harbour": "Harbour",
			"airport": "Airport",
			"truckstop": "Truck Stop",
			"elderlyhome": "Elderly Home",
			"park": "Park",
			"camp": "Camp",
			"restaurant": "Restaurant",
			"hotel": "Hotel",
			"vacation": "Vacation"
		},
		"statuses": {
			"unknown": "Status Unknown",
			"returnvisit": "Return Visit",
			"biblestudy": "Bible Study",
			"donotcall": "Do Not Call",
			"eldersonly": "Elders Only",
			"locked": "Locked",
			"lettersonly": "Letters Only",
			"vacant": "Vacant",
			"notrespassing": "No Trespassing",
			"daysleeper": "Day Sleeper",
			"witness": "Witness",
			"phoneonly": "Phone Only",
			"referral": "Referral",
			"bewareofdog": "Beware Of Dog"
		},
		"visits": {
			"add": "Add a Visit",
			"delete": "Delete Visit",
			"status": "Visit Status",
			"visited": {
				"last": "Last Visited",
				"never": "Never Visited",
				"date": "Date Visited"
			},
			"statuses": {
				"unvisited": "Unvisited",
				"visited": "Visited",
				"skipped": "Skipped",
				"nothome1": "Not at Home 1",
				"nothome2": "Not at Home 2",
				"nothome3": "Not at Home 3"
			}
		},
		"languages": {
			"unknown": "Language Unknown"
		},
		"filters": {
			"matches": "No matches for the current filter",
			"change": "Please change the filter settings",
			"maps": {
				"title": "Map Filters",
				"include": {
					"title": "Maps to Include",
					"all": "All Maps",
					"assigned": "Currently Assigned",
					"mine": "Assigned to Me"
				},
				"group": {
					"title": "Group By",
					"type": "Map Type",
					"none": "No Grouping"
				},
				"sort": {
					"title": "Sort By",
					"number": "Map Number",
					"oldest": "Oldest First",
					"assigned": "Recently Assigned",
					"addresses": "Unique Addresses"
				}
			},
			"locations": {
				"title": "Location Filters",
				"types": "Location & Unit Types",
				"statuses": "Location & Unit Statuses",
				"languages": "Location & Unit Languages",
				"apply_list": "Apply to List",
				"apply_map": "Apply to Map"
			}
		},
		"th": {
			"form": {
				"import": "Import Maps",
				"nosync": "Territory Helper account details are not synced between devices. Please sign in on each device.",
				"geocode": "Please press the locate button to the right of the address field to geocode the address with the latitude and longitude coordinates.",
				"address": "Address details can only be changed in Territory Helper.",
				"online": "You must be online to change data in Territory Helper.",
				"details": "These details come from Territory Helper.",
				"privacy": "Notes are stored in Territory Helper. Please ensure the note complies with local data privacy laws.",
				"list": "This list comes from Territory Helper.",
				"remove": "Are you sure you want to remove the Territory \"%1$s\" from ServicePlanner?"
			},
			"setup": {
				"publisher": "Getting Publisher Details",
				"congregaton": "Getting Congregation Details"
			},
			"sync": {
				"title": "リフレッシュボタンを使用する",
				"hint": "Territory Helperから最新の地図データを取得するには、上/右の更新ボタンを使用します。",
				"importing": "地域マップのインポート中...",
				"wait": "Territory Helperからマップをインポートしている間お待ちください。",
				"map": "Refresh Map Data",
				"location": "Refresh Location Data",
				"sending": "Sending changes to Territory Helper"
			},
			"assignments": {
				"status": "Assignment Status",
				"assigned": "Assigned",
				"assigned_to": "Assigned to %1$s",
				"assigned_me": "Assigned to Me",
				"assigned_date": "Assigned %1$s (%2$s days)",
				"assigned_none": "私に割り当てられた地図がありません",
				"not": "Not currently assigned",
				"request": "Request Map",
				"request_made": "Your map request has been submitted. Please wait for the Territory Servant to process your request.",
				"return": "Return Worked",
				"unworked": "Return Unworked"
			},
			"roles": {
				"0": "Publisher",
				"10": "Advanced",
				"30": "Elder",
				"35": "Overseer",
				"40": "Assistant",
				"50": "Administrator",
				"60": "Translator",
				"100": "System Administrator"
			},
			"permissions": {
				"reset": "Reset Permissions",
				"low": "Sorry, you do not have permission to perform this task in Territory Helper.",
				"changed": "If your permissions were recently upgraded in Territory Helper then please go to the territory settings in ServicePlanner and \"Reset Permissions\"."
			}
		}
	},
	"today": {
		"title": "ホーム",
		"plugins": {
			"timer": "タイマー",
			"media": "ビデオ",
			"bookshelf": "出版物",
			"territories": "区域",
			"contacts": "訪問する訪問先",
			"hours": "奉仕時間の概要",
			"activity": "アクティビティ"
		},
		"settings": {
			"title": "今日の画面の設定",
			"plugins": "表示する項目",
			"heading": "見出し",
			"activity": "アクティビティに表示する項目",
			"hours": "奉仕時間の概要に表示する項目"
		}
	},
	"timer": {
		"stop": "タイマーをストップ",
		"start": "タイマーをスタート",
		"pause": "一時停止",
		"resume": "再開",
		"confirm": {
			"more": "記録するには少なくとも５分以上が必要です",
			"message": "%3$sの奉仕時間に%1$s (%2$s)を加算しますか",
			"ministry": "奉仕時間に追加",
			"other": "%1$s時間に追加",
			"stop": "タイマーをストップ",
			"done_ministry": "%3$sの奉仕時間に%1$s (%2$s)を追加しました",
			"done_other": "%1$s (%2$s) was added to your %3$s Hours for %4$s."
		}
	},
	"library": {
		"title": "ライブラリー"
	},
	"clipboard": {
		"cover": {
			"add": "表紙を追加",
			"title": "表紙は、デバイスに保存されている写真、もしくはクリップボードにコピーされている写真より選ぶことができます",
			"choose": "写真を選ぶ",
			"clipboard": "クリップボードのイメージを使用する",
			"zoom": "表紙を確認",
			"remove": "表紙を削除"
		},
		"paste": {
			"no_image_title": "イメージがありません",
			"no_image_message": "クリップボードにイメージがありません\n\nブラウザやアプリで写真をタップしてクリップボードにコピーしてください"
		}
	},
	"bookshelf": {
		"title": "本棚",
		"publications": "出版物",
		"hints": {
			"first_item": "ツールバーの + を押して最初の%1$sを追加",
			"add_item": "ツールバーの + を押して%1$sを追加",
			"no_recent": "Recent items are added over time. Choose \"All\" on the toolbar to select your first item."
		},
		"default": {
			"description": "You can use the \"+\" button in the top toolbar to add publications to this category.\n\nTo get you started, would you like to add some default publications? You can edit or delete them at any time.",
			"confirm": "Would you like to add some default publications to this category? It will try to skip duplicate entries based on the publication abbreviation.",
			"button": "Add Default %1$s"
		},
		"sections": {
			"magazines": "雑誌",
			"awake": "目ざめよ!",
			"watchtower": "ものみの塔",
			"books": "書籍",
			"brochures": "ブロッシュア",
			"tracts": "パンフレット",
			"invites": "招待状",
			"other": "その他"
		},
		"singular": {
			"magazines": "雑誌",
			"awake": "目ざめよ!",
			"watchtower": "ものみの塔",
			"watchtower_public": "ものみの塔 (一般用)",
			"watchtower_study": "ものみの塔 (研究用)",
			"watchtower_simplified": "ものみの塔 (簡易版)",
			"books": "書籍",
			"brochures": "ブロッシュア",
			"tracts": "パンフレット",
			"invites": "招待状",
			"other": "出版物",
			"card": "連絡先カード",
			"letter": "レター",
			"link": "ウェブサイトへのリンク"
		},
		"form": {
			"new": "New %1$s",
			"today": "ホーム画面に追加",
			"remove": "ホーム画面から取り除く",
			"header": "出版物の詳細",
			"advanced": "詳細",
			"abbr": "略号",
			"url": "ウェブサイトURL (www)",
			"issue": "号数",
			"issue_number": "No.",
			"title": "タイトル",
			"locations": "ダウンロード先",
			"pdf_url": "ダウンロードのURL",
			"epub_url": "ダウンロードのURL",
			"short_title": "短いタイトル (推奨)",
			"published": "発行年",
			"count": "配布として数える",
			"confirmTodayAdded": "この出版物はアプリのホーム画面に追加されました。",
			"confirmTodayRemoved": "この出版物はアプリのホーム画面から削除されました",
			"confirmDelete": "本当に%1$s\"%2$s\"を削除してもよろしいですか?\n\nこの操作の取り消しはできません。",
			"cannot_delete": "This publication has been placed and thus cannot be deleted.\n\nYou can use the Filters to locate Contacts who have this publication in their Library, and manually remove the Placements first.",
			"tips": {
				"lookup": "This Lookup button is just a helper. It will try to help populate the publication details for you. However it will often return incomplete or empty results. In that case you will need to manually enter the missing publication details.",
				"no_image": "This button will no longer insert the cover image for publications. You can use the “Add Cover” button to do this yourself. See the Help section of the website for further details.",
				"abbr": {
					"books": "Abbreviation (bh, lv ...)",
					"brochures": "Abbreviation (fg, lc ...)",
					"tracts": "Abbreviation (T-36, T-37 ...)"
				}
			},
			"errors": {
				"abbreviation": "There does not appear to be any details for this publication abbreviation in the selected language. Please try a different abbreviation, or enter the publication details manually.",
				"imported": "This publication was imported and is not linked to any publications in your ServicePlanner Library."
			}
		}
	},
	"media": {
		"title": "メディア",
		"videos": "ビデオ",
		"video": "ビデオ",
		"default": {
			"description": "上部のツールバーの「+」ボタンを使用して、このカテゴリに動画を追加できます。\n\nまず、一般的なビデオ プレースホルダーを追加しますか? これらを使用して、利用可能な特定のビデオをすべて追加することなく、世帯主に表示されるビデオを報告できます。 それらはいつでも編集または削除できます。",
			"confirm": "一般的な動画をこのカテゴリに追加しますか? 重複するエントリをスキップしようとします。",
			"button": "一般的な動画を追加する",
			"section": "セクション%1$sビデオ"
		},
		"sections": {
			"ministry": "宣教",
			"study": "聖書研究",
			"children": "子ども向け",
			"whiteboard": "ホワイトボードアニメ",
			"songs": "歌",
			"other": "その他"
		},
		"singular": {
			"videos": "ビデオ",
			"ministry": "宣教に活用できるビデオ",
			"study": "聖書研究ビデオ",
			"children": "子ども向けビデオ",
			"whiteboard": "ホワイトボードアニメ",
			"songs": "歌",
			"other": "ビデオ"
		},
		"plural": {
			"videos": "ビデオ",
			"ministry": "宣教に活用できるビデオ",
			"study": "聖書研究ビデオ",
			"children": "子ども向けビデオ",
			"whiteboard": "ホワイトボードアニメ",
			"songs": "歌",
			"other": "ビデオ"
		},
		"sizes": {
			"240": "240p",
			"360": "360p",
			"480": "480p",
			"720": "720p"
		},
		"form": {
			"new": "New %1$s",
			"today": "ホーム画面に追加",
			"remove": "ホーム画面から削除",
			"header": "ビデオの詳細",
			"downloaded_footer": "ダウンロードしたビデオはDropboxで同期されません。",
			"advanced": "詳しい詳細",
			"duration": "時間",
			"locations": "ビデオの場所",
			"website": "ウエブサイトのアドレス",
			"website_url": "ウエブサイトのURL",
			"broadcast_url": "ブロードキャストのURL",
			"no_broadcast_url": "ブロードキャストの正しいURLを入力してください。 tv.jw.orgへアクセスし、追加したいビデオのURLをアドレスバーからコピーして、ここへ入力してください",
			"online": "オンライン Resources",
			"download_url": "URLをダウンロード",
			"download": "ビデオをダウンロード",
			"downloaded": "ダウンロードされた %1$s",
			"title": "タイトル",
			"short_title": "短いタイトル (推奨)",
			"play": "再生 %1$s",
			"stream": "ストリーミング %1$s",
			"confirm_today_added": "このビデオはホーム画面に追加されました。",
			"confirm_today_removed": "このビデオはホーム画面から削除されました。",
			"confirm_delete": "本当に\"%2$s\"の%1$sを削除しますか\n\nこの操作は取り消せません",
			"cannot_delete": "このビデオは訪問先の人に見せているため削除できません\n\nビデオを削除するには、まずフィルターを使用して訪問先を探し、家の人に見せたビデオを先に削除してください。",
			"no_videos": "You have not defined any locations for this video.",
			"tips": {
				"lookup": "This Lookup button is just a helper. It will try to help populate the video details for you. However it may return incomplete or empty results. In that case you will need to manually enter the missing video details.",
				"no_image": "This button will no longer insert the cover image for videos. You can use the “Add Cover” button to do this yourself. See the Help section of the website for further details."
			},
			"errors": {
				"url": "It does not appear to be a valid Broadcast URL for the selected language. Please enter a valid Broadcast URL or select a different language and try again. Otherwise enter the video details manually.",
				"imported": "This video was imported and is not linked to any videos in your ServicePlanner Library.\n\nYou can re-add the videos in your visits if you want to refresh this list."
			}
		}
	},
	"languages": {
		"single": "言語",
		"multiple": "言語",
		"available": "利用可能な%1$s",
		"selected": "選択された%1$s",
		"other": "その他の%1$s",
		"search": "%1$sを検索する",
		"app": {
			"title": "App 言語",
			"hint": "Used for buttons and labels",
			"restart": "言語を変更するにはアプリを再起動してください。"
		},
		"beta": {
			"title": "Incomplete Translations (Beta)",
			"hint": "Email support@serviceplanner.me to help"
		},
		"chinese": {
			"options": "Chinese Options",
			"characters": "Characters Only",
			"pi": "Pinyin",
			"zhu": "Zhuyin",
			"lau": "Sidney Lau",
			"yale": "Yale",
			"twoline": "%1$s 2-Line",
			"oneline": "%1$s Only"
		}
	},
	"websites": {
		"tasks": {
			"bookmark": "ブックマークを追加",
			"video": "ビデオを追加",
			"video_cat": "このビデオをどのカテゴリーに追加しますか?",
			"briefcase": "ブリーフケースに追加",
			"safari": "サファリで開く",
			"copy": "URLをコピー",
			"email": "Eメールビュー"
		},
		"bookmarks": {
			"none": "ブックマークはありません",
			"first": "ヒント:ウェブサイトを開いた後、ツールバーよりサイトをブックマークすることができます",
			"added": "ブックマークに追加されました"
		},
		"icon": {
			"add": "アイコンを追加",
			"title": "フォトライブラリーの写真、又はクリップボードにコピーされているイメージからアイコンを選べます",
			"zoom": "アイコンを表示",
			"remove": "アイコンを削除"
		},
		"browser": {
			"search": "検索 or ウェブサイトのURL",
			"reader": "リーダービューが使用できます",
			"2line": "Romanisation Available",
			"video": "ビデオが検知されました"
		},
		"form": {
			"new": "New %1$s",
			"today": "ホーム画面に追加",
			"remove": "ホーム画面から削除",
			"header": "ウエブサイトの詳細",
			"footer": "URL Placeholders: %Y (Year), %m (month), %d (day)",
			"advanced": "詳細設定",
			"share_link": "Share Link",
			"website": "ウェブサイトのアドレス",
			"website_url": "ウェブサイト URL",
			"online": "Online Resources",
			"title": "タイトル",
			"short_title": "短いタイトル (推奨)",
			"confirm_today_added": "ウェブサイトがホーム画面に追加されました",
			"confirm_today_removed": "ウェブサイトがホーム画面から削除されました",
			"confirm_delete": "%1$s \"%2$s\"を消去してもよろしいですか\n\nこの操作は取り消しできません",
			"errors": {
				"url": "URLが正しくないようです。もう一度、お試し下さい"
			}
		}
	},
	"activity": {
		"title": "アクティビティ",
		"current": "現在",
		"reports": "報告",
		"month": "月",
		"year": "年",
		"other": "その他",
		"manual": "マニュアル",
		"auto": "オート",
		"planned": "計画した時間",
		"scheduled": "スケジュール",
		"ministry": "宣教",
		"theocratic": "神権的",
		"personal": "個人の",
		"actual": "実際に入った時間",
		"report": {
			"title": "%1$sの報告",
			"send": "Send Report",
			"hours": "時間",
			"credits": "時間考慮分",
			"minutes": "%1$s 分",
			"hours_ministry": "奉仕時間",
			"hours_other": "%1$s 時間",
			"hours_under_planned": "目標より%1$s少ない",
			"hours_over_planned": "目標まで%1$s多い",
			"hours_progress": "%1$s of %2$s 時間",
			"hours_under": "%1$s 少ない",
			"hours_over": "%1$s 多い",
			"hours_behind": "%1$s 足りない",
			"hours_ahead": "%1$s 多い",
			"hours_ok": "予定通り",
			"hours_met": "目標達成",
			"hours_projected": "%1$s 計画中",
			"hours_projected_short": "%1$s 計画",
			"hours_reported": "%1$s 報告",
			"hours_reported_short": "%1$s 報告",
			"hours_total": "%1$s total",
			"hours_total_short": "%1$s T",
			"hours_show": "Show Hours on Calendar",
			"hours_hide": "Hide Hours on Calendar",
			"placements": "配布数",
			"placements_show": "Show Placements, Videos, RVs",
			"placements_hide": "Hide Placements, Videos, RVs",
			"mileage": "距離",
			"videos": "ビデオ",
			"visits": "再訪問",
			"visits_all": "すべての訪問の種類",
			"studies": "聖書研究",
			"studies_unique": "個々の聖書研究生の数",
			"nothing": "まだ何も報告されていません",
			"remove": "Remove From Report"
		},
		"hours": {
			"target": "月の目標",
			"target_total": "全体の目標",
			"target_alert": "この月の目標を設定します。これにより 設定＞スケジュール の中にあるデフォルトの月目標が上書きされます。",
			"carried_title": "繰り越しした時間（分）",
			"carried_label": "先月分より",
			"planned": "計画している時間",
			"planned_total": "計画している合計時間",
			"planned_ok": "= 目標",
			"actual": "実際の時間",
			"progress": "今日までの合計",
			"future": "今後の予定時間",
			"summary": "アクティビティサマリー",
			"total": "合計時間",
			"calculated": "Calculated",
			"projected": "予想達成時間",
			"reported": "報告した時間",
			"credits": {
				"add": "奉仕時間の考慮分を追加",
				"delete": "時間考慮分を削除",
				"singular": "時間考慮分",
				"plural": "時間考慮分",
				"reason": "理由",
				"hint": "例）開拓奉仕学校",
				"hours": "クレジットされた時間",
				"confirmDelete": "クレジットされている時間を消去しますか？"
			},
			"footers": {
				"goals": "デフォルトの月の目標は上書きできます",
				"planned": {
					"over": "目標達成時間より%1$sオーバー",
					"under": "目標達成まであと%1$s不足",
					"ok": "計画時間 = あなたの目標時間"
				},
				"actual": {
					"ahead": "今のところ計画時間より%1$s、多く入っています",
					"behind": "今のところ計画時間より%1$s、足りていません",
					"ok": "当初の予定通り、順調に時間が入っています"
				},
				"projected": {
					"over": "今月の目標より%1$s多く入る予定です",
					"under": "今月の目標から%1$s不足する予定です",
					"ok": "今月の目標時間へ向けて順調に時間が入っています"
				},
				"projected_goal": {
					"over": "今月の目標より%1$s多く入っています",
					"under": "今月の目標から%1$s不足しています",
					"ok": "目標時間を達成しました"
				},
				"projected_planned": {
					"over": "今月の目標より%1$s多く入る予定です",
					"under": "今月の目標から%1$s不足する予定です",
					"ok": "目標時間を達成する予定です"
				}
			}
		},
		"notes": {
			"none": {
				"title": "No notes to show",
				"description": "This list will show all notes from the currently selected calendar month and forward."
			}
		},
		"service_year": {
			"summary": "%1$s 奉仕年度のサマリー"
		},
		"send": {
			"greeting": "親愛なる%1$s兄弟,",
			"intro": "%1$sの奉仕報告を送ります。",
			"carried": "%1$s分が次の月へ繰り越されます (KM 1988年3月 3頁より)",
			"credit_hours": {
				"included_hours": "The reported time includes a %1$s hour credit for %2$s.",
				"comment_only": "Please note a %1$s hour credit for %2$s."
			},
			"other_hours": {
				"included_hours": "The reported time includes %1$s %2$s.",
				"adjusted_hours": "The reported time includes some of %1$s %2$s.",
				"comment_only": "Please note %1$s %2$s."
			}
		},
		"schedule": {
			"daily_apply": "スケジュールを適用する",
			"daily_confirm": "設定＞スケジュールで設定した毎日の予定時間を%1$sの計画時間に反映させます",
			"recalc_apply": "奉仕時間を再計算する",
			"recalc_confirm": "%1$sの奉仕時間を再計算します"
		},
		"alerts": {
			"manual_ttl": "手動で配布を記録",
			"manual_msg": "手動で記録した配布数は各訪問先の情報とはリンクしません",
			"videos_ttl": "ビデオを見せた回数",
			"videos_ttl_manual": "Manual Videos Shown",
			"videos_msg": "手動で記録したビデオ再生数は各訪問先の情報とはリンクしません"
		}
	},
	"settings": {
		"title": "設定",
		"dropbox": {
			"title": "Dropbox 同期",
			"connect": "Dropboxに接続",
			"connect_footer": "Dropboxを利用してデータのバックアップとマルチデバイス間の同期を開始します\nDropboxのアカウントをお持ちでない場合、Dropbox公式サイトよりアカウントを無料で作成できます",
			"disconnect": "Dropboxの接続解除",
			"confirm_disconnect": "Dropboxの接続を解除して同期を中止しますか",
			"last_sync": "最後に同期した日時: %1$s",
			"sync_options": "同期設定",
			"auto_sync": "自動同期",
			"wifi_only": "WiFi環境下でのみ自動的に同期する",
			"sync_now": "すぐに同期させる",
			"sync_complete": "同期完了",
			"syncing": "同期中...",
			"account": {
				"details": "同期されているアカウント",
				"name": "名前",
				"email": "Email"
			}
		},
		"backup": {
			"title": "Manual Backup",
			"button": "Backup Files Now",
			"last": "Last Backup: %1$s",
			"footer": "Email a backup of your app files",
			"confirm": {
				"title": "Generate Backup",
				"progress": "Generating Backup ...",
				"message": "This will generate a ZIP file. You can choose where/how to save the file.\n\nIt could take a few seconds to generate the backup file."
			},
			"reminder": {
				"enable": "Enable Backup Reminders",
				"7day": "Every 7 days",
				"14day": "Every 14 days",
				"30day": "Every 30 days",
				"60day": "Every 60 days",
				"alert": {
					"title": "Backup Reminder",
					"message": "It is time to backup your files. Would you like to generate the backup now?\n\nYou can configure these backup reminders in Settings."
				}
			},
			"restore": {
				"title": "Restore Backup",
				"progress": "Restoring Backup ...",
				"restored": "Data Restored",
				"confirm": "Are you sure you want to restore the data in the ZIP file?\n\nThis will replace all current data in this install of ServicePlanner.",
				"complete": "Your files were successfully restored.\n\nSome restored content may only show after ServicePlanner is restarted.",
				"blocked": "Something was wrong with the ZIP file.\n\nThe restore was blocked and nothing was changed in this install of ServicePlanner.",
				"cancelled": "The restore was cancelled and nothing was changed in this install of ServicePlanner."
			}
		},
		"appearance": {
			"title": "表示",
			"color": "テーマカラー"
		},
		"workflow": {
			"title": "ワークフロー",
			"next_visit": "次の訪問までの日数",
			"turn_orange": "橙色になるまでの日数",
			"turn_red": "赤色になるまでの日数",
			"turn_blood": "朱色になるまでの日数",
			"default_visit_type": "デフォルトの訪問タイプ",
			"visit_time": "元から計画されていた日数を使用する",
			"hints": {
				"overview": "Workflow controls what happens when you add a new visit to a contact.\n\nEach Contact Type has it's own workflow rules. For example, if you add a new visit to a Contact Type = \"Bible Study\", then you want the Visit Type to be set to \"Return Visit\" by default. And you want the next visit to be automatically scheduled for X days into the future.\n\nNormally the time of the next visit is set to the time of the visit you are currently adding, logically assuming that if you successfully contacted the person at this time today, then try the same time again next visit. However you can tell the workflow to use the \"Scheduled Time\" of the previous visit instead - i.e. re-use the planned visit time, not the time that the visit is being recorded. This is handy for Bible Studies held at the same time each week for example.\n\nThe \"Days until ...\" options let you control the number of days before the date indicators and labels change colour.\n\nFeel free to experiment and customize the rules to match your personal workflow! You can now even click on a Contact Type and rename it.",
				"visit_time": "Defaults to Current Time",
				"next_visit": "この数字は次回の訪問予定日を自動計算するのに使用します。",
				"change_color": "この日数は最後に訪問した日付からカウントを開始します。",
				"default_visit_type": "最初の訪問先を作成すると、この種類の訪問先になります。",
				"restart": "設定を有効にするには、アプリを再起動する必要があります"
			}
		},
		"partners": {
			"title": "パートナー",
			"event": {
				"calendar": "デフォルトのカレンダー",
				"event": "カレンダー詳細",
				"event_footer": "一人目のパートナーにのみ適用されます",
				"auto_add": "カレンダーに自動的に追加",
				"tentative_title": "カレンダーの件名 - 暫定の場合",
				"tentative_event": "%nと一緒に奉仕？",
				"confirmed_title": "カレンダーの件名 - 相手に確認済",
				"confirmed_event": "%nと一緒に奉仕",
				"footer": "%n にはパートナーの名前が入ります"
			},
			"name": {
				"title": "パートナーの名前",
				"full": "フルネーム",
				"first": "ファーストネーム"
			}
		},
		"schedule": {
			"title": "スケジュール",
			"form": {
				"annual_goal": "年間の目標",
				"monthly_goal": "月の目標",
				"daily_goals": "毎日の目標",
				"daily_footer": "Reset to blank (—) to skip day when applying Schedule to a month from the \"...\" menu on the Activity screen."
			}
		},
		"reporting": {
			"title": "奉仕報告",
			"overseer": {
				"send_to": "奉仕報告の送信先",
				"name": "名前",
				"mobile": "携帯番号",
				"email": "メールアドレス"
			},
			"apps": {
				"method": "報告の方法",
				"not_installed": "%1$s does not seem to be installed on this device. Please choose another method."
			},
			"calendar": {
				"title": "週の始まりの曜日"
			},
			"hours": {
				"time": {
					"title": "報告の単位",
					"tick": "Shared in Ministry",
					"hours": "時間単位 (デフォルト)",
					"minutes": "15 分単位",
					"footer": "特別な取り決めが承認された方向け"
				},
				"other": {
					"title": "その他の時間",
					"enable": "その他の時間 を有効にする",
					"label": "ラベル",
					"one_word": "ラベルには短い語句を使用してください",
					"options": {
						"title": "その他の時間オプション",
						"include_hours": "月間カレンダーに含める",
						"include_report": "奉仕報告に含める",
						"include_comment": "時間をメモ欄に含める",
						"include_breakdown": "時間内訳を表示",
						"maximum_hours": "その他の最大時間",
						"footer": "月間合計が上限を超える場合、その他の時間は短縮されます。"
					}
				},
				"alerts": {
					"format_prompt_title": "Choose Report Format",
					"format_prompt_message": "Would you like to report your hours (if you are a pioneer) or just that you shared in the ministry?\n\nYou can change the default in Settings > Reporting at any time.\n\nOn the Activity screen you can change the report format for a specific month. You can also choose to show or hide your hours on the calendar (see the top / right menu options).",
					"format_tick": "Report Shared in Ministry ✓",
					"format_hours": "Report Full Hours",
					"month_switch_title": "Switch Report Format",
					"month_switch_hours": "Would you like to switch to reporting full hours for this month?\n\nNote: This does not affect hours displaying on the calendar which is controlled from the top / right menu.",
					"month_switch_tick": "Would you like to switch to just indicating that you shared in the ministry this month - i.e. do not share your hours?\n\nNote: This does not affect hours displaying on the calendar which is controlled from the top / right menu."
				}
			},
			"mileage": {
				"title": "走行距離のログ",
				"enable": "走行距離のログを有効にする",
				"units_fuel": "単位 - ガソリン",
				"units_distance": "単位 - 距離"
			},
			"options": {
				"title": "その他のオプション",
				"notes": "奉仕報告にメモを含める",
				"zero": "奉仕報告に０時間の項目を含める",
				"footer": "含めない場合、数字がある項目だけが報告されます"
			},
			"comment": {
				"title": "メモ",
				"footer": "奉仕報告の下に表示されます"
			}
		},
		"ministry": {
			"title": "宣教"
		},
		"social": {
			"website": "ウェブサイト",
			"facebook": "Facebook",
			"twitter": "Twitter"
		},
		"help": {
			"title": "ヘルプ & サポート"
		},
		"issues": {
			"title": "Issue Tracker"
		},
		"maps": {
			"title": "住所",
			"open_in": "地図を表示させるアプリ",
			"contacts": {
				"title": "訪問先の住所を探す",
				"reformat": "住所を自動的に補完する",
				"locality": "地域の項目を自動的に補完する",
				"footer": "地域 = 地区や番地の前の住所の部分を指します"
			},
			"address": {
				"title": "住所のフォーマット",
				"street": "番地",
				"no_city": "番地, 地区",
				"no_country": "番地, 地区, 市",
				"full": "番地, 地区, 市, 国",
				"footer": "番地には数字を含み、市は郵便番号を含みます"
			},
			"locality": {
				"title": "地域のフォーマット",
				"suburb": "地区",
				"postcode_city": "郵便番号と市",
				"city_postcode": "市と郵便番号",
				"footer": "地域は訪問先を地域別にグループ化するのに使用します"
			},
			"restrictions": {
				"title": "Reverse Geocoding",
				"country": "検索結果を日本に限定"
			}
		},
		"timer": {
			"title": "タイマー",
			"enable": "タイマーを有効にする",
			"rounding": {
				"title": "５分未満の扱い",
				"down": "常に丸める",
				"nearest": "四捨五入する",
				"footer": "１３分の場合、１０分とするか１５分とするかを決定します"
			},
			"seconds": {
				"title": "秒数の扱い",
				"hide": "５９秒以上になったら表示させない",
				"always": "常に秒数を表示させる",
				"footer": "秒数を表示させると、表示が見づらくなることがあります"
			},
			"badge": {
				"label": "Appアイコンにバッジを表示",
				"footer": "タイマー作動時は \"1\" が表示されます"
			},
			"color": {
				"title": "タイマー作動時のカラー",
				"slate_gray": "グレー",
				"light_blue": "ライトブルー",
				"dark_blue": "ダークブルー",
				"light_green": "ライトグリーン",
				"dark_green": "ダークグリーン"
			},
			"logs": {
				"title": "ログ",
				"none": "このデバイスにはタイマーのログ履歴はありません",
				"alert": "タイマーの履歴を削除しても報告時間への影響はありません",
				"footer": "直近３０件の履歴を表示しています。タイマーの設定と履歴は他のデバイス間と同期されません"
			}
		},
		"debug": {
			"title": "Debug Tools",
			"device": "Device Information",
			"memory": "Available Memory",
			"network": "Network Type",
			"email": {
				"title": "Email Debugging Data",
				"footer": "Please do not do this unless I specifically request this data to help debug an issue you are having.",
				"message": "Do not try to use this file for anything - just email it to %1$s.",
				"button": "Generate Email"
			}
		},
		"beta": {
			"title": "Beta Testers",
			"gitlab": {
				"title": "Beta Tracker",
				"button": "Issue Tracker for Beta Testers",
				"footer": "Used for beta specific bug reports and feedback. Create a free GitLab account and send me your username to get access."
			},
			"report": {
				"title": "Submit New Issue",
				"email": "Your GitLab Email Address (Optional)",
				"button": "Send Feedback",
				"footer": "Get your personalised email address from the bottom of the list of Issues on the GitLab Issue Tracker."
			}
		},
		"appstore": {
			"title": "App Store"
		},
		"tags": {
			"edit": "タグ名を変更",
			"delete": {
				"title": "タグを消去",
				"warning": "\"%1$s\"のタグはすべての訪問先から消去されます。\n\n消去しますか"
			}
		},
		"notifications": {
			"title": "通知",
			"sync": "通知設定はデバイス間で同期されません",
			"report": {
				"title": "奉仕報告の提出をリマインド",
				"last": "月の最終日に通知",
				"first": "翌月の１日に通知",
				"notification": {
					"message": "今月の奉仕報告を提出する時期です"
				}
			},
			"visits": {
				"title": "訪問予定をリマインド",
				"tomorrow": "前日の夜に通知",
				"today": "その日の朝に通知",
				"notification": {
					"message": "%3$sは%2$sの予定が%1$s件あります"
				}
			},
			"partner": {
				"title": "奉仕の友との約束をリマインド",
				"tomorrow": "前日の夜に通知",
				"today": "その日の朝に通知",
				"notification": {
					"message": "%1$s %2$sと一緒に奉仕する予定です",
					"join_middle": ",",
					"join_last": "と"
				}
			}
		},
		"gdpr": {
			"title": "GDPRコンプライアンス",
			"footer": "訪問先画面と訪問先情報を無効化します",
			"alert": "EU及びイギリス圏のユーザーはGDPR（EU一般データ保護規則）遵守のため、このモードに切り替えることができます。\n\n1) 今日の画面から訪問先のタブと訪問先情報を無効化します。\n\n2) すべての訪問先情報が削除されます。",
			"notice": "In some parts of the world users need to comply with the General Data Protection Regulation (GDPR). This means that NO contact data can be collected.\n\nIf you are affected by the GDPR in your country then please go into Settings and enable the \"GDPR Compliance\" mode.\n\nAny questions about this please ask your local elders or check the website.",
			"important": "Important Notice",
			"understand": "理解しました"
		}
	}
}
